<svg width="56" height="56" viewBox="0 0 56 56" fill="none" xmlns="http://www.w3.org/2000/svg">
<g clip-path="url(#clip0)">
<path d="M33.2004 14.1645L31.2504 13.4697L28.6646 20.6035L33.6654 22.3864L33.2004 14.1645Z" fill="#B47D56"/>
<path d="M33.273 14.0239C32.1119 17.2258 32.213 19.0941 34.5374 19.9209L33.6689 22.3919C30.9245 21.4122 31.0316 17.618 32.3881 13.8795L33.273 14.0239" fill="#F9C19B"/>
<path d="M35.5619 2.43687L45.2522 9.74064C45.6844 12.4711 44.3877 13.373 44.0731 14.3748C43.9357 14.8197 44.5428 15.9409 44.8647 16.5274C45.5883 17.8401 43.5364 17.9605 42.9221 17.5869C42.1466 18.4167 42.7301 18.9302 41.153 18.2051C40.286 17.8065 39.3737 16.5561 39.3737 16.5561C42.4311 20.4272 41.0398 21.0744 39.5672 20.0681C38.8129 22.1464 37.5124 21.6816 34.6627 20.6667C32.3371 19.8373 31.224 17.0771 32.3855 13.8742L29.4645 12.2247L35.5619 2.43687Z" fill="#B47D56"/>
<path d="M40.7675 0.984836C32.7052 -1.88895 29.1885 4.51872 28.6002 9.62333C28.2871 12.3401 29.0467 14.4108 30.3613 15.6523L31.3301 15.4292L32.3846 13.874C32.3846 13.874 30.9386 12.9465 31.1218 10.9987C31.2032 10.1057 32.5922 8.84474 33.829 9.20974C34.6935 9.46588 35.6826 10.5229 35.8739 10.8043C36.6262 8.73161 36.9793 6.437 38.6279 6.3283C39.9839 6.23976 44.1975 10.288 45.2532 9.7411C48.0816 8.28252 45.6207 2.71403 40.7675 0.984836" fill="#231F20"/>
<path d="M33.5275 11.3858C33.685 11.4208 33.8263 11.4946 33.9374 11.5957C33.9205 11.4256 33.8895 11.2536 33.8456 11.0759C33.7918 10.8584 33.71 10.6445 33.6445 10.4004C34.0528 10.682 34.3423 11.1556 34.3781 11.6858C34.4093 12.2229 34.1384 12.7277 33.7468 13.0257C33.7938 12.7768 33.8675 12.5567 33.9063 12.342C33.9284 12.2022 33.9413 12.0674 33.9477 11.9357C33.8862 11.9176 33.8282 11.8986 33.7707 11.884C33.6497 11.857 33.5484 11.8223 33.4405 11.8032C33.3339 11.7772 33.2244 11.7682 33.1013 11.7468C32.9782 11.7254 32.8486 11.7219 32.6892 11.6862C32.8751 11.4357 33.2121 11.3253 33.5275 11.3858" fill="#47352D"/>
<path d="M41.5572 13.074C41.3161 13.7365 41.5083 14.413 41.9889 14.5837C42.467 14.7556 43.0493 14.3545 43.2904 13.692C43.5315 13.0296 43.3374 12.3523 42.8587 12.1824C42.38 12.0124 41.7965 12.4108 41.5572 13.074" fill="#47352D"/>
<path d="M39.3732 16.5549C39.3732 16.5549 39.993 18.8546 40.2263 19.2311C40.7233 20.0292 41.0925 19.7517 40.919 19.1671C40.7415 18.564 39.3732 16.5549 39.3732 16.5549Z" fill="#47352D"/>
<path d="M31.7809 16.0709L33.0226 16.6708L38.1126 8.91388L36.8681 8.31299L31.7809 16.0709Z" fill="#3E4347"/>
<path d="M31.9957 16.4216L33.3397 16.2084L30.9255 10.0088L29.5796 10.2213L31.9957 16.4216Z" fill="#3E4347"/>
<path d="M34.0283 15.4918L32.303 14.8638L30.57 19.6252L32.2953 20.2532L34.0283 15.4918Z" fill="#3E4347"/>
<path d="M27.0729 10.504C27.1874 12.3473 33.4692 9.68097 37.1451 9.44924C41.179 9.19882 47.3159 10.7375 47.2223 9.24025C46.8812 3.8037 42.0937 -0.32255 36.5294 0.0274632C30.9635 0.379013 26.7292 5.06862 27.0726 10.5049" fill="#F15744"/>
<path d="M33.6339 21.1607C34.4172 21.0201 35.1747 21.5236 35.3279 22.287L36.3526 27.5296L33.5197 28.0384L32.4943 22.7976C32.339 22.0345 32.8506 21.3013 33.6339 21.1607" fill="#3B946F"/>
<path d="M33.5568 27.6592C33.7305 26.9072 34.4962 26.4612 35.273 26.6397L40.7475 27.8841L40.1196 30.6151L34.6482 29.3739C33.8676 29.194 33.3803 28.4133 33.5568 27.6592Z" fill="#3B946F"/>
<path d="M40.0562 29.2309L40.2329 27.8713C40.298 27.3853 40.754 27.0447 41.2507 27.1127L41.9291 27.2021C42.2865 27.2492 42.5708 27.4942 42.6771 27.8075C43.5735 27.9879 44.7107 28.4625 44.4961 30.0903C44.4612 30.3585 44.2684 31.8473 42.4598 31.6062C39.7944 31.2512 39.7944 31.2512 40.0562 29.2309" fill="#935E3E"/>
<path d="M30.4136 43.7591C31.8934 43.8742 33.0056 45.1282 32.8981 46.5608L26.5325 46.069C25.7932 46.0096 25.2377 45.3838 25.2918 44.665L25.3893 43.3681L30.4136 43.7591Z" fill="#D3976E"/>
<path d="M25.3891 43.3671L30.4437 43.7595L31.1171 34.9038L26.0584 34.5141L25.3891 43.3671Z" fill="#3E4347"/>
<path d="M25.9084 36.5378L31.1174 34.9038L26.2053 28.6698L20.2786 29.7584L25.9084 36.5378Z" fill="#3E4347"/>
<path d="M45.2332 55.3646C46.6925 55.3636 48.1073 55.0847 49.4422 54.5308C50.7272 53.9971 51.8853 53.2332 52.879 52.2604C53.871 51.2891 54.6508 50.1554 55.193 48.8938C55.7595 47.5888 56.0445 46.2006 56.0456 44.7707C56.0448 43.3402 55.7597 41.9541 55.1937 40.6466C54.6515 39.3851 53.8697 38.2524 52.8792 37.2811C51.8859 36.3087 50.7284 35.5447 49.4384 35.0103C48.1043 34.4566 46.689 34.1756 45.2304 34.1747C43.7711 34.1756 42.3557 34.4565 41.0207 35.0103C39.7338 35.5433 38.5764 36.3054 37.5839 37.2808C36.5919 38.252 35.8121 39.3857 35.268 40.6467C34.7034 41.9523 34.4166 43.3399 34.4173 44.7704C34.4162 46.2003 34.7032 47.587 35.2673 48.8938C35.8121 50.1541 36.5913 51.288 37.5837 52.26C38.5761 53.2321 39.7327 53.9957 41.0245 54.5308C42.3586 55.0845 43.7746 55.3636 45.2332 55.3646V55.3646ZM45.2347 36.0077C50.1656 36.0061 54.1758 39.9377 54.1764 44.7661C54.1757 49.5983 50.1649 53.5275 45.2347 53.5273C40.3044 53.527 36.2936 49.5972 36.2937 44.7669C36.2937 39.9367 40.3045 36.0075 45.2347 36.0077" fill="#333333"/>
<path d="M11.7681 55.3616C13.2267 55.3625 14.6421 55.0817 15.9764 54.5297C17.2614 53.9961 18.4202 53.2302 19.4132 52.2593C20.4052 51.288 21.185 50.1543 21.7272 48.8927C22.2925 47.5852 22.5793 46.1976 22.5798 44.7696C22.5809 43.3398 22.2946 41.9511 21.7279 40.6456C21.1857 39.384 20.4039 38.2513 19.4115 37.2793C18.4189 36.305 17.2626 35.5436 15.9808 35.0101C14.6463 34.4573 13.2314 34.1754 11.7721 34.1763C10.3109 34.1766 8.89548 34.4574 7.56312 35.0101C6.27365 35.5443 5.11808 36.307 4.12631 37.2805C3.13454 38.254 2.35383 39.3874 1.80975 40.6483C1.24514 41.954 0.958952 43.3396 0.959726 44.7702C0.958621 46.2 1.24494 47.5887 1.80971 48.8936C2.35382 50.1558 3.133 51.2896 4.12539 52.2617C5.11779 53.2337 6.2747 53.9964 7.56625 54.5325C8.89974 55.0849 10.3163 55.3653 11.7756 55.3643L11.7681 55.3616ZM11.7771 36.0075C16.7074 36.0077 20.7182 39.9375 20.7181 44.7678C20.7181 49.5981 16.707 53.5282 11.7771 53.527C6.84615 53.5286 2.83533 49.5989 2.83539 44.7686C2.83544 39.9383 6.84619 36.0091 11.7771 36.0075" fill="#333333"/>
<path d="M19.6226 31.6586L17.6729 26.8668L18.9471 26.3686L20.8348 31.009L41.3503 31.0055L43.3417 28.9198L44.3441 29.8381L41.9449 32.351L38.82 32.3523L38.7772 34.9493L26.0199 47.3754L20.3185 33.3634L12.3853 45.052L11.145 44.4803L19.6243 31.6539L19.6226 31.6586ZM26.5309 44.9861L38.1115 33.6939L37.5509 32.3512L21.3869 32.3518L26.5281 44.9851" fill="#ED4C5C"/>
<path d="M11.0385 46.7626C9.91592 46.3541 9.33039 45.1314 9.73066 44.0316C10.1309 42.9319 11.3654 42.3717 12.488 42.7802C13.6105 43.1888 14.196 44.4115 13.7958 45.5112C13.3955 46.6109 12.161 47.1712 11.0385 46.7626Z" fill="#333333"/>
<path d="M33.2646 46.7986L29.784 45.5317L29.3893 46.6161L32.87 47.883L33.2646 46.7986Z" fill="#94989B"/>
<path d="M22.4561 48.2802L18.9736 47.0127L18.5785 48.098L22.061 49.3656L22.4561 48.2802Z" fill="#94989B"/>
<path d="M29.6674 46.4256L29.6706 46.9898L26.0186 47.4803L26.0195 46.9166L29.6674 46.4256Z" fill="#B3B3B3"/>
<path d="M25.0022 50.4893C23.4266 49.9158 22.6049 48.1993 23.1668 46.6553C23.7288 45.1113 25.4616 44.3246 27.0372 44.8981C28.6128 45.4716 29.4346 47.1881 28.8726 48.732C28.3107 50.276 26.5778 51.0627 25.0022 50.4893Z" fill="#333333"/>
<path d="M25.7658 48.3919C25.3724 48.2487 25.1673 47.82 25.3076 47.4344C25.448 47.0488 25.8807 46.8523 26.274 46.9955C26.6674 47.1387 26.8726 47.5674 26.7322 47.953C26.5919 48.3386 26.1592 48.5351 25.7658 48.3919Z" fill="#B3B3B3"/>
<path d="M26.0217 47.9816L22.3696 48.4721L22.3708 47.9075L26.0194 47.4147L26.0217 47.9816Z" fill="#B3B3B3"/>
<path d="M22.4274 46.0435C23.8376 46.4961 24.6188 47.9723 24.1689 49.3399L18.0985 47.3965C17.3958 47.1695 17.005 46.4334 17.2316 45.7465L17.6362 44.5093L22.4302 46.0445" fill="#D3976E"/>
<path d="M17.6316 44.5129L21.9444 45.8879L25.273 35.535L20.4532 33.9829L17.6316 44.5129Z" fill="#3E4347"/>
<path d="M19.9255 35.9299L25.2731 35.5351L21.0721 27.5784L16.583 29.7926L19.9255 35.9299Z" fill="#3E4347"/>
<path d="M15.6443 24.5706L26.2045 28.6717L34.5755 21.2683C34.5755 21.2683 32.175 18.2353 30.9709 18.0088C22.4219 16.4105 15.6443 24.5706 15.6443 24.5706" fill="#47B892"/>
<path d="M16.583 29.7925L25.9605 30.3015L26.2084 28.6731L15.8246 24.2744C14.192 26.6694 16.583 29.7925 16.583 29.7925Z" fill="#3E4347"/>
<path d="M33.4828 20.8376C34.2755 20.8058 34.9537 21.4102 34.9938 22.1857L35.2518 27.5175L32.3726 27.6274L32.1174 22.2966C32.0744 21.5201 32.6863 20.868 33.4828 20.8376" fill="#47B892"/>
<path d="M32.4673 27.2586C32.7486 26.5383 33.5688 26.2026 34.313 26.4884L39.5523 28.4784L38.5368 31.0959L33.2968 29.1078C32.5539 28.8215 32.1837 27.9822 32.4673 27.2586" fill="#47B892"/>
<path d="M38.671 29.7165L39.0415 28.3945C39.1755 27.9239 39.678 27.6514 40.1586 27.7869L40.8164 27.9678C41.1649 28.0659 41.4109 28.3459 41.4726 28.6706C42.3305 28.9743 43.3882 29.603 42.9417 31.1836C42.8691 31.4445 42.462 32.8905 40.7067 32.4006C38.1181 31.6798 38.1181 31.6798 38.671 29.7165" fill="#B47D56"/>
<path d="M44.8019 45.4471L46.065 44.734L38.4253 31.4159L37.1547 32.1294L44.8019 45.4471Z" fill="#ED4C5C"/>
<path d="M44.8693 45.7674C44.3078 45.563 44.015 44.951 44.2154 44.4003C44.4159 43.8497 45.0335 43.569 45.5951 43.7734C46.1566 43.9777 46.4493 44.5898 46.2489 45.1404C46.0485 45.6911 45.4308 45.9718 44.8693 45.7674Z" fill="#333333"/>
</g>
<defs>
<clipPath id="clip0">
<rect width="56" height="56" fill="white"/>
</clipPath>
</defs>
</svg>
