<svg width="107" height="267" viewBox="0 0 107 267" fill="none" xmlns="http://www.w3.org/2000/svg">
<path d="M84.6678 234.488C82.5465 230.643 80.6812 226.7 79.6519 222.54C78.5665 218.164 78.0812 213.633 77.3439 209.208C75.9825 201.031 75.2332 192.865 71.3825 185.189C69.7105 181.852 67.4425 178.641 64.7492 175.821C61.2732 172.183 58.1545 168.393 55.1545 164.464C50.5585 158.44 47.1198 151.559 41.6092 146.084C36.6785 141.183 28.9652 137.685 21.2598 138.255C12.9798 138.867 5.57585 143.617 1.80518 149.725C-2.31215 156.395 2.58919 163.161 6.71186 168.872C9.26652 172.409 12.3798 175.605 15.0612 179.065C18.4345 183.416 20.7265 187.669 21.4465 192.864C22.2812 198.844 23.0052 203.869 27.2652 208.899C31.5212 213.924 35.7945 218.941 36.2572 225.075C34.7119 230.228 34.1132 235.763 35.3932 240.713C37.2599 247.917 44.8665 251.671 51.8519 255.123C55.5732 256.961 59.0892 258.991 62.7198 260.94C66.5572 263.003 69.5065 265.14 73.9638 266.187C81.4638 267.945 86.1972 260.9 88.1105 256C90.8959 248.864 88.2812 241.039 84.6678 234.488" fill="#D5E5AB"/>
<path d="M48.7973 144.332C47.248 142.541 45.776 140.729 43.9867 139.239C42.5773 138.065 40.98 137.228 39.4934 136.204C42.396 136.085 45.288 135.888 48.2067 135.888C49.2827 135.888 49.2827 133.988 48.2067 133.988C45.12 133.988 42.0627 134.208 38.9934 134.323C40.54 132.425 42.0413 130.529 43.6733 128.708C45.2853 126.908 46.9707 124.893 48.0747 122.64C48.604 121.569 47.1573 120.612 46.6333 121.681C45.572 123.836 43.9507 125.557 42.4907 127.365C41.0947 129.093 39.6453 130.789 38.22 132.5C38.4987 130.323 39.3067 128.352 40.0667 126.317C40.9093 124.069 41.4254 121.596 42.1414 119.285C43.5307 114.797 45.3733 110.357 46.456 105.765C46.7373 104.58 45.1227 104.079 44.8427 105.26C43.672 110.229 41.6827 115.052 40.1774 119.912C39.516 122.055 38.64 124.312 37.9053 126.605C37.9307 125.64 37.9573 124.677 37.9667 123.709C38.0013 120.405 37.72 117.095 37.708 113.787C37.6987 110.408 37.4147 107.019 37.3267 103.639C37.232 100.031 36.7693 95.7667 37.256 92.2147C37.42 91.016 35.8093 90.5014 35.6453 91.7094C35.2627 94.4974 35.612 97.4587 35.612 100.285C35.612 104.032 35.7827 107.775 35.9533 111.515C36.124 115.219 36.1347 118.936 36.2774 122.644C36.392 125.652 36.144 128.645 36.2053 131.649C33.636 122.372 29.1254 114.056 26.008 105.067C25.6174 103.94 24 104.431 24.3947 105.572C27.0787 113.308 30.8 120.56 33.42 128.343C32.9493 127.921 32.4493 127.525 31.9067 127.148C30.512 126.176 29.328 124.997 28.028 123.879C26.66 122.7 25.1987 121.867 24.0893 120.328C23.4067 119.38 22.2307 120.731 22.9067 121.671C26.1654 126.195 31.9534 127.912 34.7827 132.843C34.784 132.852 34.7867 132.86 34.792 132.867C34.8027 132.915 34.8214 132.956 34.8387 132.997C34.7254 133.015 34.6107 133.053 34.4934 133.149C33.2334 134.164 31.3587 134.193 29.9214 134.796C28.02 135.593 25.9813 135.687 24.1 136.635C23.1147 137.128 23.9667 138.765 24.9427 138.275C26.8814 137.3 29.008 137.197 30.98 136.371C31.8694 135.996 32.8413 135.875 33.756 135.589C32.1107 137.905 30.0134 139.872 28.36 142.16C27.2387 143.711 25.1454 145.569 25.0494 147.713C24.9934 148.939 26.6653 148.933 26.72 147.713C26.768 146.671 27.9627 145.667 28.5187 144.901C29.364 143.741 30.2 142.575 31.0774 141.447C32.1947 140.007 33.4453 138.741 34.5693 137.345C33.3853 141.839 32.444 146.415 31.108 150.855C30.2707 153.639 29.3014 156.368 28.2294 159.043C27.6694 160.435 26.9453 161.427 26.9213 163.007C26.904 164.232 28.576 164.231 28.596 163.007C28.6227 161.099 30.2347 158.668 30.896 156.953C31.728 154.789 32.3827 152.48 33.056 150.247C33.7587 147.908 34.3334 145.521 34.896 143.131C34.8707 153.181 34.7227 163.468 32.064 173.013C31.7387 174.187 33.3533 174.683 33.676 173.52C36.032 165.059 36.452 156.008 36.5427 147.053C36.7627 148.972 37.008 150.888 37.264 152.804C38.2147 159.951 38.884 167.14 39.732 174.293C39.876 175.503 41.4867 174.985 41.344 173.788C40.588 167.412 40.0333 160.995 39.1867 154.623C38.5613 149.923 37.9414 145.231 37.5854 140.507C37.7654 140.932 37.9373 141.359 38.092 141.796C39.08 144.604 40.156 147.347 41.1787 150.139C42.088 152.619 43.0347 155.113 43.8214 157.644C44.3534 159.347 44.816 161.333 45.6107 162.905C46.1467 163.968 47.5907 163.012 47.0547 161.947C46.2494 160.349 45.6574 157.855 45.1107 156.095C44.312 153.535 43.3014 151.027 42.3854 148.521C41.4987 146.103 40.5173 143.745 39.7053 141.291C39.2667 139.967 38.64 138.721 38.1053 137.443C39.172 138.221 40.3053 138.883 41.42 139.607C43.8507 141.184 45.6787 143.437 47.6147 145.675C48.3733 146.551 49.5533 145.205 48.7973 144.332" fill="#0E8291"/>
<path d="M31.4653 170.327C29.5426 167.308 28.6439 162.053 27.9932 158.645C27.1172 154.092 26.4879 149.383 26.0626 144.656C25.6386 140.391 25.4092 136.085 25.3946 131.789C25.2559 124.483 25.5279 117.059 26.5813 109.916C26.9826 106.609 27.5919 103.389 28.5759 100.403C29.9919 95.6747 32.4453 90.5747 36.2573 92.6361V85.6C34.8506 85.388 33.4039 85.6227 31.9719 86.4454C29.1279 88.0747 26.9213 91.4574 25.2826 95.364C24.6813 96.66 24.1679 98.048 23.7599 99.4907C23.6999 99.716 23.6439 99.9587 23.5892 100.192C22.9972 102.212 22.5399 104.247 22.2119 106.141C20.5279 115.765 21.2079 126.191 21.7666 135.945C22.4066 147.175 23.6439 158.545 26.1026 169.297C27.0439 173.415 29.1212 179.521 32.3839 181.041C33.4399 182.316 34.7493 182.945 36.2573 182.808V175.079C34.2746 174.931 32.6959 172.948 31.4653 170.327" fill="#0D4C54"/>
<path d="M46.4493 96.6467C44.7986 89 40.2387 86.2 36.2573 85.6V92.636C36.2613 92.64 36.2653 92.6414 36.2693 92.644C41.564 95.5214 43.956 105.577 45.06 112.88C51.736 157.093 40.6346 173.291 38.5146 174.499C37.7093 174.959 36.9573 175.131 36.2573 175.079V182.808C36.4333 182.792 36.6133 182.772 36.7987 182.733C42.968 181.471 60.424 161.259 46.4493 96.6467" fill="#0D4C54"/>
<path d="M96.3148 207.824C95.0308 205.837 93.6095 203.979 92.3948 201.927C90.1108 198.075 81.7828 183.153 76.0135 191.067C71.3935 197.403 83.0295 206.58 88.0522 208.541C89.6282 209.752 91.2508 210.904 92.9295 211.989C94.1668 212.788 97.5815 214.056 97.5748 211.228C97.5695 209.933 97.0055 208.897 96.3148 207.824" fill="#B91F2C"/>
<path d="M86.4838 198.769C85.6011 199.899 84.4584 200.493 83.0224 200.521C82.5798 200.528 82.5798 201.212 83.0224 201.203C84.6238 201.173 85.9784 200.519 86.9664 199.251C87.2331 198.909 86.7544 198.421 86.4838 198.769Z" fill="#D51F26"/>
<path d="M87.6307 202.007C87.3467 202.777 86.6121 203.275 85.7987 203.299C85.3601 203.312 85.3587 203.995 85.7987 203.981C86.9347 203.949 87.8987 203.251 88.2894 202.188C88.4427 201.773 87.7814 201.596 87.6307 202.007" fill="#D51F26"/>
<path d="M89.5704 204.016C88.9984 204.6 88.5185 205.416 87.7878 205.815C87.4012 206.024 87.7465 206.613 88.1318 206.404C88.9278 205.972 89.4345 205.131 90.0531 204.5C90.3598 204.184 89.8784 203.701 89.5704 204.016" fill="#D51F26"/>
<path d="M80.3318 206.508C78.4331 204.577 76.6291 202.623 74.4358 201.015C72.7104 199.748 70.7518 198.845 68.9304 197.741C72.4878 197.613 76.0304 197.4 79.6078 197.4C80.9278 197.4 80.9278 195.351 79.6078 195.351C75.8264 195.351 72.0784 195.588 68.3158 195.711C70.2131 193.665 72.0531 191.621 74.0531 189.656C76.0278 187.715 78.0918 185.54 79.4464 183.111C80.0918 181.956 78.3238 180.923 77.6771 182.076C76.3798 184.401 74.3891 186.257 72.6024 188.207C70.8931 190.073 69.1171 191.9 67.3718 193.745C67.7104 191.397 68.7025 189.272 69.6318 187.077C70.6665 184.652 71.2984 181.984 72.1731 179.493C73.8757 174.651 76.1344 169.861 77.4638 164.909C77.8064 163.631 75.8291 163.089 75.4878 164.364C74.0518 169.724 71.6104 174.925 69.7691 180.167C68.9571 182.479 67.8851 184.915 66.9824 187.388C67.0158 186.347 67.0478 185.307 67.0611 184.265C67.1024 180.7 66.7544 177.129 66.7424 173.561C66.7304 169.917 66.3837 166.259 66.2757 162.613C66.1597 158.723 65.5931 154.124 66.1864 150.293C66.3891 149 64.4131 148.445 64.2131 149.748C63.7424 152.756 64.1744 155.948 64.1744 158.999C64.1744 163.039 64.3825 167.076 64.5931 171.109C64.8025 175.107 64.8131 179.115 64.9891 183.115C65.1318 186.36 64.8265 189.588 64.8985 192.828C61.7531 182.821 56.2277 173.852 52.4064 164.156C51.9291 162.941 49.9451 163.469 50.4318 164.7C53.7171 173.045 58.2771 180.867 61.4878 189.261C60.9118 188.808 60.2984 188.38 59.6358 187.972C57.9278 186.925 56.4731 185.653 54.8798 184.445C53.2051 183.176 51.4131 182.276 50.0558 180.617C49.2184 179.593 47.7771 181.052 48.6078 182.065C52.5984 186.945 59.6905 188.797 63.1598 194.116C63.1625 194.125 63.1664 194.133 63.1677 194.141C63.1811 194.193 63.2051 194.237 63.2238 194.283C63.0878 194.301 62.9464 194.343 62.8024 194.445C61.2611 195.541 58.9611 195.572 57.2011 196.223C54.8704 197.083 52.3744 197.183 50.0664 198.204C48.8598 198.74 49.9038 200.503 51.0998 199.973C53.4744 198.923 56.0825 198.813 58.4985 197.92C59.5891 197.517 60.7771 197.385 61.8985 197.079C59.8851 199.577 57.3145 201.697 55.2878 204.165C53.9145 205.837 51.3491 207.843 51.2291 210.156C51.1611 211.476 53.2117 211.471 53.2784 210.156C53.3344 209.032 54.8011 207.948 55.4838 207.123C56.5171 205.871 57.5424 204.612 58.6158 203.395C59.9851 201.843 61.5198 200.477 62.8958 198.972C61.4438 203.819 60.2904 208.753 58.6531 213.544C57.6278 216.547 56.4425 219.491 55.1265 222.376C54.4438 223.877 53.5544 224.947 53.5251 226.652C53.5024 227.973 55.5518 227.972 55.5744 226.652C55.6104 224.592 57.5838 221.972 58.3931 220.121C59.4145 217.787 60.2171 215.299 61.0424 212.888C61.9024 210.365 62.6064 207.792 63.2971 205.212C63.2664 216.055 63.0824 227.148 59.8278 237.445C59.4278 238.709 61.4064 239.247 61.8024 237.991C64.6878 228.865 65.2037 219.103 65.3144 209.443C65.5851 211.512 65.8864 213.58 66.1971 215.645C67.3624 223.356 68.1811 231.109 69.2238 238.827C69.3998 240.131 71.3731 239.572 71.1998 238.281C70.2731 231.403 69.5904 224.481 68.5558 217.609C67.7891 212.539 67.0291 207.477 66.5931 202.383C66.8118 202.84 67.0251 203.3 67.2144 203.773C68.4237 206.801 69.7425 209.76 70.9958 212.771C72.1105 215.447 73.2691 218.137 74.2331 220.868C74.8851 222.704 75.4544 224.845 76.4278 226.543C77.0838 227.689 78.8518 226.657 78.1958 225.508C77.2078 223.785 76.4851 221.095 75.8104 219.196C74.8344 216.435 73.5971 213.729 72.4731 211.027C71.3877 208.419 70.1851 205.875 69.1905 203.228C68.6518 201.8 67.8838 200.456 67.2291 199.076C68.5371 199.917 69.9238 200.631 71.2931 201.412C74.2705 203.112 76.5091 205.543 78.8838 207.957C79.8091 208.901 81.2585 207.451 80.3318 206.508" fill="#0E8291"/>
<path d="M59.0906 234.547C56.7346 231.292 55.6359 225.623 54.8359 221.947C53.7639 217.035 52.9932 211.955 52.4732 206.859C51.9545 202.257 51.6746 197.613 51.6546 192.98C51.4839 185.097 51.8185 177.091 53.1079 169.387C53.5999 165.82 54.3439 162.347 55.5532 159.124C57.2852 154.025 60.2932 148.524 64.9639 150.749V143.157C63.2412 142.929 61.4692 143.183 59.7145 144.069C56.2305 145.827 53.5239 149.476 51.5172 153.692C50.7785 155.087 50.1519 156.584 49.6519 158.14C49.5759 158.385 49.5079 158.645 49.4412 158.899C48.7159 161.076 48.1572 163.271 47.7532 165.315C45.6905 175.695 46.5239 186.94 47.2079 197.463C47.9932 209.575 49.5079 221.839 52.5212 233.437C53.6759 237.879 56.1719 246.904 64.9639 248.011V239.672C62.5345 239.512 60.6012 237.375 59.0906 234.547" fill="#0D4C54"/>
<path d="M45.1946 202.357C40.0812 199.584 36.2066 202.969 35.6199 208.113C35.4732 209.396 35.5466 210.699 35.7226 211.999C36.1746 217.655 38.3799 224.739 39.3266 226.633C39.4413 226.864 39.5626 227.08 39.6919 227.276C40.0119 227.977 40.4266 228.621 40.9959 229.127C41.9573 229.979 42.9506 229.349 43.8879 227.973C44.6973 227.309 45.1399 226.183 45.4439 224.955C47.0626 221.087 48.2652 216.031 48.3759 215.165C48.7665 212.081 49.0466 207.981 47.3612 205.159C46.9612 203.988 46.2932 202.953 45.1946 202.357" fill="#B91F2C"/>
<path d="M44.2707 214.456C43.0001 215.005 41.1175 214.537 39.9855 213.839C39.6095 213.607 39.2668 214.197 39.6388 214.428C41.0081 215.273 43.1015 215.701 44.6135 215.045C45.0188 214.871 44.6681 214.283 44.2707 214.456Z" fill="#D51F26"/>
<path d="M43.5162 217.496C42.5816 217.496 41.3482 217.584 40.7256 216.74C40.4669 216.389 39.8722 216.729 40.1349 217.084C40.9402 218.172 42.2762 218.177 43.5162 218.179C43.9562 218.179 43.9562 217.496 43.5162 217.496" fill="#D51F26"/>
<path d="M43.5158 220.273H41.0478C40.6078 220.273 40.6078 220.956 41.0478 220.956H43.5158C43.9558 220.956 43.9558 220.273 43.5158 220.273Z" fill="#D51F26"/>
<path d="M54.5108 156.735C54.1668 151.467 51.4535 146.123 45.6988 145.663C42.3615 145.396 40.2574 147.327 39.2148 149.891C39.1121 149.939 39.0148 150.009 38.9361 150.117C37.3628 152.229 37.8322 154.947 37.9908 157.419C38.2495 161.439 37.9122 165.615 37.2988 169.584C36.7308 173.251 35.7655 176.803 35.4388 180.509C35.0561 184.889 35.8868 189.303 36.4281 193.631C36.8495 196.992 37.1308 200.332 38.1028 203.595C38.6441 205.421 39.5855 208.545 41.4441 209.492C45.9841 211.801 47.1975 205.319 47.8855 202.309C49.6108 194.751 50.0814 187.092 51.4174 179.475C52.7574 171.808 55.0241 164.611 54.5108 156.735" fill="#F89E67"/>
<path d="M47.1131 159.647C46.7184 160.465 46.3971 161.356 45.7238 161.993C45.0531 162.628 43.5637 161.001 43.4944 160.329C43.4491 159.896 42.7664 159.892 42.8117 160.329C42.9211 161.393 44.1664 162.588 45.1664 162.86C46.4638 163.213 47.3091 160.805 47.7037 159.992C47.8931 159.597 47.3038 159.251 47.1131 159.647" fill="#F57850"/>
<path d="M62.1467 113.463C61.0934 107.688 53.8707 108.168 49.476 108.136C41.768 108.076 39.5907 117.029 39.468 117.516C38.584 121.02 37.4214 124.429 36.712 127.976C36.0174 131.447 35.4214 134.932 34.5987 138.377C33.8107 141.688 33.1614 144.643 33.4867 148.076C34.04 153.849 40.7974 152.897 44.8961 152.62C49.0934 152.336 51.2947 155.488 55.064 156.247C56.8214 156.601 58.0614 154.869 58.7814 153.565C61.7534 148.179 62.6427 140.664 62.9267 134.613C63.2534 127.691 63.3974 120.291 62.1467 113.463" fill="#00ABC0"/>
<path d="M98.0918 155.352C97.6398 150.527 95.7158 144.511 90.8891 142.539C87.3998 141.116 79.6171 142.579 76.7811 144.96C73.7811 147.476 79.0104 164.371 79.0104 164.371C79.0104 164.371 78.7064 171.309 78.3944 174.828C78.0904 178.299 78.1931 181.781 77.8771 185.255C77.6318 187.939 76.6811 191.292 77.8224 193.899C79.4664 197.651 82.7024 198.135 85.0491 194.955C89.1571 189.389 91.3611 181.557 93.6104 175.103C95.8704 168.625 98.7504 162.356 98.0918 155.352" fill="#F89E67"/>
<path d="M90.6749 153.452C90.4683 154.376 90.0283 155.309 89.3389 155.967C88.2176 157.033 87.2376 154.947 86.9083 154.133C86.7456 153.731 86.0856 153.907 86.2496 154.315C86.7016 155.429 87.5509 157.228 89.0523 156.899C90.3283 156.62 91.0843 154.753 91.3336 153.635C91.4296 153.205 90.7709 153.023 90.6749 153.452" fill="#F57850"/>
<path d="M84.1425 113.999C81.3132 108.789 75.6612 107.515 70.1452 107.515C66.0039 107.515 61.4372 107.235 58.9186 110.223C58.4106 110.056 57.8252 110.228 57.7132 110.904C57.6026 111.56 57.5559 112.193 57.5452 112.816C57.5012 112.956 57.4572 113.097 57.4172 113.245C57.3265 113.591 57.4065 113.88 57.5759 114.095C57.7052 115.957 58.1519 117.752 58.5479 119.716C59.3599 123.739 59.7972 127.805 60.5439 131.837C61.7932 138.577 65.6572 143.079 69.4052 150.519C71.6452 154.959 77.6812 154.807 81.5839 151.537C83.7079 149.756 97.7626 153.023 97.5319 141.149C97.4466 136.715 87.7799 120.691 84.1425 113.999" fill="#00ABC0"/>
<path d="M95.6362 58.3721C93.7148 54.8361 90.1761 51.7641 87.3201 49.0027C84.7388 46.5094 81.9175 44.3587 78.4695 43.2574C74.4735 41.9827 69.8308 43.452 65.6815 42.9614C61.3921 42.4547 56.4375 43.0161 52.0655 43.9494C45.4202 44.1374 38.9882 48.0041 35.6002 53.6027C33.5242 57.0307 32.2335 61.0241 30.6282 64.6774C28.9748 68.4427 28.5628 73.296 27.6802 77.312C26.3682 83.2987 41.0161 81.8281 42.9428 82.372C46.3548 83.3414 38.5482 107.263 44.8335 114.072C47.1108 116.54 58.5295 115.76 61.6188 116.079C65.9802 116.528 70.8522 116.748 74.9988 115.18C81.4322 112.748 80.1108 103.139 80.9162 97.8254C81.5908 93.3854 82.2082 88.4907 83.3775 84.164C84.0882 81.5254 87.1935 80.196 89.3948 79.092C91.6295 77.9694 93.6895 76.444 95.7641 75.0427C97.6268 73.7827 100.549 71.6787 100.692 69.1774C100.928 65.0641 97.4735 61.7547 95.6362 58.3721" fill="#EE2A25"/>
<path d="M35.164 78.096C35.004 78.012 34.4614 78.2426 33.9574 78.7173C33.7934 78.1013 33.48 77.68 33.208 77.6693C32.9147 77.6586 32.5746 78.1693 32.4373 78.8813C31.8693 78.3266 31.2173 78.0546 31.0493 78.1839C30.916 78.2853 30.86 78.6826 30.9773 79.1813C30.412 79.0626 29.9586 79.104 29.8706 79.232C29.7293 79.4387 30.2053 80.3346 31.184 80.8973C31.8586 81.288 32.5466 81.4893 32.9866 81.4586C33.044 81.464 33.096 81.4586 33.144 81.4506C33.172 81.4573 33.204 81.4613 33.236 81.4613C33.2493 81.4613 33.264 81.4586 33.2773 81.4559C33.308 81.4586 33.3387 81.46 33.3693 81.4586C33.812 81.484 34.5013 81.2586 35.176 80.8333C36.1266 80.2333 36.5626 79.2706 36.412 79.1199C36.3186 79.0253 35.8533 78.9947 35.2827 79.1293C35.3853 78.596 35.3053 78.1707 35.164 78.096" fill="#EF3526"/>
<path d="M77.7149 78.096C77.5522 78.012 77.0082 78.2426 76.5069 78.7173C76.3415 78.1013 76.0255 77.68 75.7562 77.6693C75.4615 77.6586 75.1229 78.1693 74.9856 78.8813C74.4176 78.3266 73.7656 78.0546 73.5962 78.1839C73.4656 78.2853 73.4095 78.6826 73.5255 79.1813C72.9589 79.0626 72.5055 79.104 72.4175 79.232C72.2775 79.4387 72.7549 80.3346 73.7323 80.8973C74.4083 81.288 75.0935 81.4893 75.5349 81.4586C75.5909 81.464 75.6429 81.4586 75.6909 81.4506C75.7216 81.4573 75.7522 81.4613 75.7842 81.4613C75.7975 81.4613 75.8109 81.4586 75.8269 81.4559C75.8549 81.4586 75.8856 81.46 75.9189 81.4586C76.3589 81.484 77.0522 81.2586 77.7229 80.8333C78.6749 80.2333 79.1122 79.2706 78.9602 79.1199C78.8669 79.0253 78.4003 78.9947 77.8323 79.1293C77.9349 78.596 77.8549 78.1707 77.7149 78.096" fill="#EF3526"/>
<path d="M63.0935 80.8973C63.7695 81.288 64.4548 81.4893 64.8974 81.4586C64.9521 81.464 65.0041 81.4586 65.0534 81.4506C65.0841 81.4573 65.1134 81.4613 65.1454 81.4613C65.1601 81.4613 65.1747 81.4586 65.1867 81.4559C65.2187 81.4586 65.2481 81.46 65.2801 81.4586C65.7228 81.484 66.4134 81.2586 67.0881 80.8333C68.0388 80.2333 68.4734 79.2706 68.3227 79.1199C68.2281 79.0253 67.7641 78.9947 67.1961 79.1293C67.2988 78.596 67.2187 78.1707 67.0761 78.096C66.9147 78.012 66.3708 78.2426 65.8694 78.7173C65.7068 78.1013 65.3894 77.68 65.1174 77.6693C64.8254 77.6586 64.4867 78.1693 64.3481 78.8813C63.7801 78.3266 63.1281 78.0546 62.9601 78.1839C62.8281 78.2853 62.7734 78.6826 62.8881 79.1813C62.3241 79.0626 61.8667 79.104 61.7814 79.232C61.6414 79.4387 62.1161 80.3346 63.0935 80.8973Z" fill="#EF3526"/>
<path d="M43.9146 81.4559C43.944 81.4586 43.9773 81.46 44.0053 81.4586C44.4493 81.484 45.14 81.2586 45.8146 80.8333C46.7666 80.2333 47.2013 79.2706 47.0506 79.1199C46.9546 79.0253 46.4893 78.9947 45.9213 79.1293C46.0227 78.596 45.9439 78.1707 45.8013 78.096C45.6413 78.012 45.0973 78.2426 44.596 78.7173C44.432 78.1013 44.1173 77.68 43.8453 77.6693C43.5533 77.6586 43.2106 78.1693 43.0733 78.8813C42.5053 78.3266 41.8546 78.0546 41.684 78.1839C41.5533 78.2853 41.4986 78.6826 41.6119 79.1813C41.0493 79.0626 40.5946 79.104 40.5093 79.232C40.3666 79.4387 40.8413 80.3346 41.82 80.8973C42.4973 81.288 43.1813 81.4893 43.624 81.4586C43.6787 81.464 43.7293 81.4586 43.7786 81.4506C43.8106 81.4573 43.8413 81.4613 43.872 81.4613C43.888 81.4613 43.9 81.4586 43.9146 81.4559" fill="#EF3526"/>
<path d="M77.7149 64.2974C77.5522 64.2147 77.0082 64.4454 76.5069 64.9188C76.3415 64.3028 76.0255 63.8827 75.7562 63.8707C75.4615 63.8614 75.1229 64.3721 74.9856 65.0827C74.4176 64.5294 73.7656 64.2574 73.5962 64.3867C73.4656 64.4881 73.4095 64.8854 73.5255 65.3854C72.9589 65.2654 72.5055 65.3054 72.4175 65.4334C72.2775 65.6401 72.7549 66.5361 73.7323 67.1001C74.4083 67.4894 75.0935 67.6921 75.5349 67.6601C75.5909 67.6668 75.6429 67.6627 75.6909 67.6534C75.7216 67.6601 75.7522 67.6641 75.7842 67.6641C75.7975 67.6641 75.8109 67.6601 75.8269 67.6587C75.8549 67.6627 75.8856 67.6628 75.9189 67.6601C76.3589 67.6881 77.0522 67.4614 77.7229 67.0361C78.6749 66.4361 79.1122 65.4734 78.9602 65.3227C78.8669 65.2281 78.4003 65.1974 77.8323 65.3307C77.9349 64.7974 77.8549 64.3721 77.7149 64.2974" fill="#EF3526"/>
<path d="M72.2574 58.3908C72.0961 58.3068 71.5507 58.5388 71.048 59.0134C70.8854 58.3961 70.5681 57.9748 70.2987 57.9654C70.0027 57.9548 69.6654 58.464 69.5267 59.176C68.9601 58.6227 68.3067 58.3494 68.1387 58.4787C68.0067 58.5814 67.9507 58.9787 68.0654 59.4774C67.5014 59.3587 67.0481 59.4001 66.9601 59.5268C66.8201 59.7348 67.296 60.6294 68.2734 61.1934C68.9507 61.5828 69.632 61.7841 70.076 61.7548C70.1334 61.7588 70.1854 61.7547 70.2334 61.7454C70.264 61.7534 70.2934 61.7574 70.3267 61.7561C70.3387 61.7561 70.3547 61.7548 70.3694 61.7521C70.3987 61.7548 70.428 61.7561 70.4587 61.7548C70.9014 61.7801 71.592 61.5547 72.2667 61.1281C73.216 60.5294 73.6547 59.5667 73.5013 59.4147C73.4093 59.3214 72.9441 59.2894 72.3747 59.4254C72.4761 58.8907 72.3974 58.4641 72.2574 58.3908" fill="#EF3526"/>
<path d="M72.2574 71.5281C72.0961 71.4427 71.5507 71.6761 71.048 72.1494C70.8854 71.5321 70.5681 71.1121 70.2987 71.1027C70.0027 71.0907 69.6654 71.6014 69.5267 72.3134C68.9601 71.7587 68.3067 71.4867 68.1387 71.6147C68.0067 71.7174 67.9507 72.116 68.0654 72.6147C67.5014 72.4947 67.0481 72.5361 66.9601 72.6641C66.8201 72.8707 67.296 73.7667 68.2734 74.3307C68.9507 74.7187 69.632 74.9201 70.076 74.8907C70.1334 74.8947 70.1854 74.8907 70.2334 74.8827C70.264 74.8894 70.2934 74.8934 70.3267 74.8934C70.3387 74.8934 70.3547 74.8907 70.3694 74.8881C70.3987 74.8907 70.428 74.8921 70.4587 74.8907C70.9014 74.9161 71.592 74.6908 72.2667 74.2654C73.216 73.6654 73.6547 72.7041 73.5013 72.5521C73.4093 72.4574 72.9441 72.4267 72.3747 72.5614C72.4761 72.0267 72.3974 71.6027 72.2574 71.5281" fill="#EF3526"/>
<path d="M61.7814 65.4334C61.6414 65.6401 62.1161 66.5361 63.0935 67.1001C63.7695 67.4894 64.4548 67.6921 64.8974 67.6601C64.9521 67.6668 65.0041 67.6627 65.0534 67.6534C65.0841 67.6601 65.1134 67.6641 65.1454 67.6641C65.1601 67.6641 65.1747 67.6601 65.1867 67.6587C65.2187 67.6627 65.2481 67.6628 65.2801 67.6601C65.7228 67.6881 66.4134 67.4614 67.0881 67.0361C68.0388 66.4361 68.4734 65.4734 68.3227 65.3227C68.2281 65.2281 67.7641 65.1974 67.1961 65.3307C67.2988 64.7974 67.2187 64.3721 67.0761 64.2974C66.9147 64.2147 66.3708 64.4454 65.8694 64.9188C65.7068 64.3028 65.3894 63.8827 65.1174 63.8707C64.8254 63.8614 64.4867 64.3721 64.3481 65.0827C63.7801 64.5294 63.1281 64.2574 62.9601 64.3867C62.8281 64.4881 62.7734 64.8854 62.8881 65.3854C62.3241 65.2654 61.8667 65.3054 61.7814 65.4334" fill="#EF3526"/>
<path d="M61.7814 51.636C61.6414 51.8427 62.1161 52.7387 63.0935 53.3027C63.7695 53.6934 64.4548 53.8934 64.8974 53.8614C64.9521 53.8694 65.0041 53.8654 65.0534 53.8547C65.0841 53.8614 65.1134 53.8667 65.1454 53.8667C65.1601 53.8667 65.1747 53.8614 65.1867 53.8601C65.2187 53.8654 65.2481 53.8654 65.2801 53.8614C65.7228 53.8894 66.4134 53.6627 67.0881 53.2387C68.0388 52.6387 68.4734 51.6761 68.3227 51.5241C68.2281 51.4307 67.7641 51.3987 67.1961 51.5334C67.2988 51 67.2187 50.5747 67.0761 50.5C66.9147 50.416 66.3708 50.6481 65.8694 51.1214C65.7068 50.5054 65.3894 50.084 65.1174 50.0747C64.8254 50.0627 64.4867 50.5734 64.3481 51.2854C63.7801 50.7321 63.1281 50.4601 62.9601 50.5881C62.8281 50.6907 62.7734 51.0894 62.8881 51.5867C62.3241 51.4667 61.8667 51.508 61.7814 51.636" fill="#EF3526"/>
<path d="M59.5959 74.8827C59.6266 74.8894 59.6573 74.8934 59.6879 74.8934C59.7026 74.8934 59.7172 74.8907 59.7306 74.8881C59.7612 74.8907 59.7906 74.8921 59.8226 74.8907C60.2652 74.9161 60.9559 74.6908 61.6279 74.2654C62.5812 73.6654 63.0159 72.7041 62.8666 72.5521C62.7732 72.4574 62.3052 72.4267 61.7372 72.5614C61.8372 72.0267 61.7599 71.6027 61.6172 71.5281C61.4572 71.4427 60.9132 71.6761 60.4119 72.1494C60.2479 71.5321 59.9333 71.1121 59.6626 71.1027C59.3679 71.0907 59.0279 71.6014 58.8892 72.3134C58.3226 71.7587 57.6705 71.4867 57.5012 71.6147C57.3679 71.7174 57.3146 72.116 57.4279 72.6147C56.8652 72.4947 56.4106 72.5361 56.3252 72.6641C56.1839 72.8707 56.6599 73.7667 57.6372 74.3307C58.3132 74.7187 58.9959 74.9201 59.4412 74.8907C59.4959 74.8947 59.5466 74.8907 59.5959 74.8827" fill="#EF3526"/>
<path d="M45.6866 72.6641C45.5452 72.8707 46.0212 73.7667 46.9999 74.3307C47.6746 74.7187 48.3599 74.9201 48.8026 74.8907C48.8572 74.8947 48.9092 74.8907 48.9586 74.8827C48.9892 74.8894 49.0199 74.8934 49.0519 74.8934C49.0652 74.8934 49.0799 74.8907 49.0933 74.8881C49.1239 74.8907 49.1532 74.8921 49.1852 74.8907C49.6279 74.9161 50.3199 74.6908 50.9933 74.2654C51.9439 73.6654 52.3799 72.7041 52.2279 72.5521C52.1346 72.4574 51.6666 72.4267 51.0999 72.5614C51.2012 72.0267 51.1212 71.6027 50.9799 71.5281C50.8212 71.4427 50.2772 71.6761 49.7759 72.1494C49.6105 71.5321 49.2959 71.1121 49.0252 71.1027C48.7306 71.0907 48.3919 71.6014 48.2532 72.3134C47.6852 71.7587 47.0333 71.4867 46.8653 71.6147C46.7306 71.7174 46.6772 72.116 46.7919 72.6147C46.2266 72.4947 45.7746 72.5361 45.6866 72.6641" fill="#EF3526"/>
<path d="M46.9999 87.4667C47.6746 87.856 48.3599 88.0574 48.8026 88.0267C48.8572 88.0307 48.9092 88.0281 48.9586 88.0187C48.9892 88.0267 49.0199 88.0307 49.0519 88.0294C49.0652 88.0294 49.0799 88.0267 49.0933 88.0254C49.1239 88.028 49.1532 88.0281 49.1852 88.0267C49.6279 88.0521 50.3199 87.8267 50.9933 87.4027C51.9439 86.8014 52.3799 85.8387 52.2279 85.6881C52.1346 85.5947 51.6666 85.5627 51.0999 85.6974C51.2012 85.164 51.1212 84.7387 50.9799 84.664C50.8212 84.58 50.2772 84.812 49.7759 85.2867C49.6105 84.6694 49.2959 84.248 49.0252 84.2387C48.7306 84.2267 48.3919 84.7387 48.2532 85.4494C47.6852 84.8961 47.0333 84.6227 46.8653 84.7521C46.7306 84.8534 46.6772 85.252 46.7919 85.7507C46.2266 85.6307 45.7746 85.672 45.6866 85.8C45.5452 86.0067 46.0212 86.9014 46.9999 87.4667" fill="#EF3526"/>
<path d="M54.2599 81.4586C54.3159 81.464 54.3679 81.4586 54.4159 81.4506C54.4465 81.4573 54.4811 81.4613 54.5091 81.4613C54.5265 81.4613 54.5385 81.4586 54.5532 81.4559C54.5812 81.4586 54.6118 81.46 54.6452 81.4586C55.0852 81.484 55.7772 81.2586 56.4492 80.8333C57.4012 80.2333 57.8372 79.2706 57.6865 79.1199C57.5932 79.0253 57.1265 78.9947 56.5585 79.1293C56.6612 78.596 56.5811 78.1707 56.4398 78.096C56.2785 78.012 55.7332 78.2426 55.2332 78.7173C55.0705 78.1013 54.7532 77.68 54.4838 77.6693C54.1865 77.6586 53.8479 78.1693 53.7105 78.8813C53.1439 78.3266 52.4905 78.0546 52.3225 78.1839C52.1905 78.2853 52.1345 78.6826 52.2505 79.1813C51.6852 79.0626 51.2305 79.104 51.1439 79.232C51.0012 79.4387 51.4812 80.3346 52.4572 80.8973C53.1345 81.288 53.8199 81.4893 54.2599 81.4586" fill="#EF3526"/>
<path d="M29.7199 74.2654C30.6679 73.6654 31.1066 72.7041 30.9546 72.5521C30.8599 72.4574 30.3932 72.4267 29.8252 72.5614C29.9279 72.0267 29.8492 71.6027 29.7079 71.5281C29.5639 71.4521 29.1119 71.6401 28.6612 72.0161C28.4892 72.9787 28.3239 73.9347 28.1572 74.8721C28.5879 74.8281 29.1545 74.6214 29.7199 74.2654" fill="#EF3526"/>
<path d="M45.6866 46.3907C45.5452 46.5973 46.0212 47.4933 46.9999 48.0573C47.6746 48.4467 48.3599 48.648 48.8026 48.6173C48.8572 48.6226 48.9092 48.6186 48.9586 48.6093C48.9892 48.616 49.0199 48.62 49.0519 48.62C49.0652 48.62 49.0799 48.6173 49.0933 48.616C49.1239 48.6187 49.1532 48.6186 49.1852 48.6173C49.6279 48.6426 50.3199 48.4173 50.9933 47.9933C51.9439 47.3933 52.3799 46.4306 52.2279 46.2786C52.1346 46.184 51.6666 46.1533 51.0999 46.288C51.2012 45.7547 51.1212 45.3293 50.9799 45.2547C50.8212 45.1707 50.2772 45.4026 49.7759 45.876C49.6105 45.26 49.2959 44.8387 49.0252 44.828C48.7306 44.8173 48.3919 45.328 48.2532 46.04C47.6852 45.4866 47.0333 45.2133 46.8653 45.3426C46.7306 45.444 46.6772 45.8426 46.7919 46.34C46.2266 46.2213 45.7746 46.2627 45.6866 46.3907" fill="#EF3526"/>
<path d="M56.3252 46.3907C56.1839 46.5973 56.6599 47.4933 57.6372 48.0573C58.3132 48.4467 58.9959 48.648 59.4412 48.6173C59.4959 48.6226 59.5466 48.6186 59.5959 48.6093C59.6266 48.616 59.6573 48.62 59.6879 48.62C59.7026 48.62 59.7172 48.6173 59.7306 48.616C59.7612 48.6187 59.7906 48.6186 59.8226 48.6173C60.2652 48.6426 60.9559 48.4173 61.6279 47.9933C62.5812 47.3933 63.0159 46.4306 62.8666 46.2786C62.7732 46.184 62.3052 46.1533 61.7372 46.288C61.8372 45.7547 61.7599 45.3293 61.6172 45.2547C61.4572 45.1707 60.9132 45.4026 60.4119 45.876C60.2479 45.26 59.9333 44.8387 59.6626 44.828C59.3679 44.8173 59.0279 45.328 58.8892 46.04C58.3226 45.4866 57.6705 45.2133 57.5012 45.3426C57.3679 45.444 57.3146 45.8426 57.4279 46.34C56.8652 46.2213 56.4106 46.2627 56.3252 46.3907" fill="#EF3526"/>
<path d="M66.9601 46.3907C66.8201 46.5973 67.296 47.4933 68.2734 48.0573C68.9507 48.4467 69.632 48.648 70.076 48.6173C70.1334 48.6226 70.1854 48.6186 70.2334 48.6093C70.264 48.616 70.2934 48.62 70.3267 48.62C70.3387 48.62 70.3547 48.6173 70.3694 48.616C70.3987 48.6187 70.428 48.6186 70.4587 48.6173C70.9014 48.6426 71.592 48.4173 72.2667 47.9933C73.216 47.3933 73.6547 46.4306 73.5013 46.2786C73.4093 46.184 72.9441 46.1533 72.3747 46.288C72.4761 45.7547 72.3974 45.3293 72.2574 45.2547C72.0961 45.1707 71.5507 45.4026 71.048 45.876C70.8854 45.26 70.5681 44.8387 70.2987 44.828C70.0027 44.8173 69.6654 45.328 69.5267 46.04C68.9601 45.4866 68.3067 45.2133 68.1387 45.3426C68.0067 45.444 67.9507 45.8426 68.0654 46.34C67.5014 46.2213 67.0481 46.2627 66.9601 46.3907" fill="#EF3526"/>
<path d="M73.5962 50.5881C73.4656 50.6907 73.4095 51.0894 73.5255 51.5867C72.9589 51.4667 72.5055 51.508 72.4175 51.636C72.2775 51.8427 72.7549 52.7387 73.7323 53.3027C74.4083 53.6934 75.0935 53.8934 75.5349 53.8614C75.5909 53.8694 75.6429 53.8654 75.6909 53.8547C75.7216 53.8614 75.7522 53.8667 75.7842 53.8667C75.7975 53.8667 75.8109 53.8614 75.8269 53.8601C75.8549 53.8654 75.8856 53.8654 75.9189 53.8614C76.3589 53.8894 77.0522 53.6627 77.7229 53.2387C78.6749 52.6387 79.1122 51.6761 78.9602 51.5241C78.8669 51.4307 78.4003 51.3987 77.8323 51.5334C77.9349 51 77.8549 50.5747 77.7149 50.5C77.5522 50.416 77.0082 50.6481 76.5069 51.1214C76.3415 50.5054 76.0255 50.084 75.7562 50.0747C75.4615 50.0627 75.1229 50.5734 74.9856 51.2854C74.4176 50.7321 73.7656 50.4601 73.5962 50.5881" fill="#EF3526"/>
<path d="M56.3252 59.5268C56.1839 59.7348 56.6599 60.6294 57.6372 61.1934C58.3132 61.5828 58.9959 61.7841 59.4412 61.7548C59.4959 61.7588 59.5466 61.7547 59.5959 61.7454C59.6266 61.7534 59.6573 61.7574 59.6879 61.7561C59.7026 61.7561 59.7172 61.7548 59.7306 61.7521C59.7612 61.7548 59.7906 61.7561 59.8226 61.7548C60.2652 61.7801 60.9559 61.5547 61.6279 61.1281C62.5812 60.5294 63.0159 59.5667 62.8666 59.4147C62.7732 59.3214 62.3052 59.2894 61.7372 59.4254C61.8372 58.8907 61.7599 58.4641 61.6172 58.3908C61.4572 58.3068 60.9132 58.5388 60.4119 59.0134C60.2479 58.3961 59.9333 57.9748 59.6626 57.9654C59.3679 57.9548 59.0279 58.464 58.8892 59.176C58.3226 58.6227 57.6705 58.3494 57.5012 58.4787C57.3679 58.5814 57.3146 58.9787 57.4279 59.4774C56.8652 59.3587 56.4106 59.4001 56.3252 59.5268" fill="#EF3526"/>
<path d="M47.0507 106.716C46.9547 106.621 46.4894 106.589 45.9214 106.724C46.0227 106.192 45.944 105.765 45.8013 105.692C45.6413 105.608 45.0974 105.839 44.596 106.313C44.432 105.696 44.1173 105.276 43.8453 105.265C43.5533 105.255 43.2106 105.764 43.0733 106.476C42.832 106.24 42.5747 106.059 42.3467 105.935C42.3973 106.961 42.4947 107.947 42.6507 108.872C43.0213 109.003 43.3667 109.072 43.624 109.053C43.6787 109.059 43.7293 109.056 43.7786 109.045C43.8106 109.053 43.8413 109.056 43.872 109.056C43.888 109.056 43.9 109.053 43.9146 109.052C43.944 109.056 43.9773 109.056 44.0053 109.053C44.4493 109.08 45.14 108.855 45.8146 108.429C46.7666 107.829 47.2013 106.867 47.0507 106.716" fill="#EF3526"/>
<path d="M40.5093 51.636C40.3666 51.8427 40.8413 52.7387 41.82 53.3027C42.4973 53.6934 43.1813 53.8934 43.624 53.8614C43.6787 53.8694 43.7293 53.8654 43.7786 53.8547C43.8106 53.8614 43.8413 53.8667 43.872 53.8667C43.888 53.8667 43.9 53.8614 43.9146 53.8601C43.944 53.8654 43.9773 53.8654 44.0053 53.8614C44.4493 53.8894 45.14 53.6627 45.8146 53.2387C46.7666 52.6387 47.2013 51.6761 47.0506 51.5241C46.9546 51.4307 46.4893 51.3987 45.9213 51.5334C46.0227 51 45.9439 50.5747 45.8013 50.5C45.6413 50.416 45.0973 50.6481 44.596 51.1214C44.432 50.5054 44.1173 50.084 43.8453 50.0747C43.5533 50.0627 43.2106 50.5734 43.0733 51.2854C42.5053 50.7321 41.8546 50.4601 41.684 50.5881C41.5533 50.6907 41.4986 51.0894 41.6119 51.5867C41.0493 51.4667 40.5946 51.508 40.5093 51.636" fill="#EF3526"/>
<path d="M40.5093 65.4334C40.3666 65.6401 40.8413 66.5361 41.82 67.1001C42.4973 67.4894 43.1813 67.6921 43.624 67.6601C43.6787 67.6668 43.7293 67.6627 43.7786 67.6534C43.8106 67.6601 43.8413 67.6641 43.872 67.6641C43.888 67.6641 43.9 67.6601 43.9146 67.6587C43.944 67.6627 43.9773 67.6628 44.0053 67.6601C44.4493 67.6881 45.14 67.4614 45.8146 67.0361C46.7666 66.4361 47.2013 65.4734 47.0506 65.3227C46.9546 65.2281 46.4893 65.1974 45.9213 65.3307C46.0227 64.7974 45.9439 64.3721 45.8013 64.2974C45.6413 64.2147 45.0973 64.4454 44.596 64.9188C44.432 64.3028 44.1173 63.8827 43.8453 63.8707C43.5533 63.8614 43.2106 64.3721 43.0733 65.0827C42.5053 64.5294 41.8546 64.2574 41.684 64.3867C41.5533 64.4881 41.4986 64.8854 41.6119 65.3854C41.0493 65.2654 40.5946 65.3054 40.5093 65.4334" fill="#EF3526"/>
<path d="M35.1637 64.2974C35.0037 64.2147 34.4611 64.4454 33.9571 64.9188C33.7931 64.3028 33.4797 63.8827 33.2077 63.8707C32.9144 63.8614 32.5744 64.3721 32.437 65.0827C31.869 64.5294 31.2171 64.2574 31.0491 64.3867C30.9158 64.4881 30.8598 64.8854 30.9771 65.3854C30.7518 65.3374 30.5544 65.3214 30.3811 65.3201C30.2797 65.5761 30.1731 65.8268 30.0811 66.0908C30.3011 66.4214 30.6704 66.8054 31.1837 67.1001C31.8584 67.4894 32.5464 67.6921 32.9864 67.6601C33.0437 67.6668 33.0958 67.6627 33.1438 67.6534C33.1718 67.6601 33.2037 67.6641 33.2357 67.6641C33.2491 67.6641 33.2638 67.6601 33.2771 67.6587C33.3078 67.6627 33.3384 67.6628 33.3691 67.6601C33.8117 67.6881 34.501 67.4614 35.1757 67.0361C36.1264 66.4361 36.5624 65.4734 36.4117 65.3227C36.3184 65.2281 35.8531 65.1974 35.2824 65.3307C35.3851 64.7974 35.3051 64.3721 35.1637 64.2974" fill="#EF3526"/>
<path d="M45.6866 59.5268C45.5452 59.7348 46.0212 60.6294 46.9999 61.1934C47.6746 61.5828 48.3599 61.7841 48.8026 61.7548C48.8572 61.7588 48.9092 61.7547 48.9586 61.7454C48.9892 61.7534 49.0199 61.7574 49.0519 61.7561C49.0652 61.7561 49.0799 61.7548 49.0933 61.7521C49.1239 61.7548 49.1532 61.7561 49.1852 61.7548C49.6279 61.7801 50.3199 61.5547 50.9933 61.1281C51.9439 60.5294 52.3799 59.5667 52.2279 59.4147C52.1346 59.3214 51.6666 59.2894 51.0999 59.4254C51.2012 58.8907 51.1212 58.4641 50.9799 58.3908C50.8212 58.3068 50.2772 58.5388 49.7759 59.0134C49.6105 58.3961 49.2959 57.9748 49.0252 57.9654C48.7306 57.9548 48.3919 58.464 48.2532 59.176C47.6852 58.6227 47.0333 58.3494 46.8653 58.4787C46.7306 58.5814 46.6772 58.9787 46.7919 59.4774C46.2266 59.3587 45.7746 59.4001 45.6866 59.5268" fill="#EF3526"/>
<path d="M83.0561 51.636C82.9134 51.8427 83.3894 52.7387 84.3694 53.3027C85.0454 53.6934 85.7281 53.8934 86.1708 53.8614C86.2281 53.8694 86.2801 53.8654 86.3295 53.8547C86.3588 53.8614 86.3894 53.8667 86.4228 53.8667C86.4348 53.8667 86.4468 53.8614 86.4628 53.8601C86.4935 53.8654 86.5241 53.8654 86.5561 53.8614C86.9974 53.8894 87.6881 53.6627 88.3614 53.2387C89.3134 52.6387 89.7495 51.6761 89.5988 51.5241C89.5028 51.4307 89.0374 51.3987 88.4681 51.5334C88.5707 51 88.4921 50.5747 88.3508 50.5C88.1894 50.416 87.6455 50.6481 87.1441 51.1214C86.9801 50.5054 86.6654 50.084 86.3921 50.0747C86.1001 50.0627 85.7601 50.5734 85.6215 51.2854C85.0561 50.7321 84.4028 50.4601 84.2321 50.5881C84.1001 50.6907 84.0455 51.0894 84.1628 51.5867C83.5975 51.4667 83.1441 51.508 83.0561 51.636" fill="#EF3526"/>
<path d="M88.3508 64.2974C88.1894 64.2147 87.6455 64.4454 87.1441 64.9188C86.9801 64.3028 86.6654 63.8827 86.3921 63.8707C86.1001 63.8614 85.7601 64.3721 85.6215 65.0827C85.0561 64.5294 84.4028 64.2574 84.2321 64.3867C84.1001 64.4881 84.0455 64.8854 84.1628 65.3854C83.5975 65.2654 83.1441 65.3054 83.0561 65.4334C82.9134 65.6401 83.3894 66.5361 84.3694 67.1001C85.0454 67.4894 85.7281 67.6921 86.1708 67.6601C86.2281 67.6668 86.2801 67.6627 86.3295 67.6534C86.3588 67.6601 86.3894 67.6641 86.4228 67.6641C86.4348 67.6641 86.4468 67.6601 86.4628 67.6587C86.4935 67.6627 86.5241 67.6628 86.5561 67.6601C86.9974 67.6881 87.6881 67.4614 88.3614 67.0361C89.3134 66.4361 89.7495 65.4734 89.5988 65.3227C89.5028 65.2281 89.0374 65.1974 88.4681 65.3307C88.5707 64.7974 88.4921 64.3721 88.3508 64.2974" fill="#EF3526"/>
<path d="M81.6868 85.2867C81.5228 84.6694 81.2082 84.248 80.9348 84.2387C80.6415 84.2267 80.3015 84.7387 80.1642 85.4494C79.5988 84.8961 78.9442 84.6227 78.7762 84.7521C78.6442 84.8534 78.5882 85.252 78.7055 85.7507C78.1415 85.6307 77.6828 85.672 77.5975 85.8C77.4548 86.0067 77.9335 86.9014 78.9095 87.4667C79.5882 87.856 80.2722 88.0574 80.7148 88.0267C80.7708 88.0307 80.8215 88.0281 80.8695 88.0187C80.8989 88.0267 80.9308 88.0307 80.9615 88.0294C80.9762 88.0294 80.9895 88.0267 81.0042 88.0254C81.0322 88.028 81.0655 88.0281 81.0975 88.0267C81.4695 88.0494 82.0135 87.8841 82.5775 87.5827C82.7189 86.8961 82.8695 86.216 83.0308 85.548C83.0882 85.088 83.0202 84.7307 82.8935 84.664C82.7309 84.58 82.1868 84.812 81.6868 85.2867" fill="#EF3526"/>
<path d="M93.5305 71.5281C93.3679 71.4427 92.8252 71.6761 92.3239 72.1494C92.1612 71.5321 91.8425 71.1121 91.5719 71.1027C91.2772 71.0907 90.9399 71.6014 90.8025 72.3134C90.2332 71.7587 89.5812 71.4867 89.4105 71.6147C89.2799 71.7174 89.2238 72.116 89.3398 72.6147C88.7758 72.4947 88.3212 72.5361 88.2345 72.6641C88.0932 72.8707 88.5665 73.7667 89.5478 74.3307C90.2225 74.7187 90.9092 74.9201 91.3492 74.8907C91.4065 74.8947 91.4585 74.8907 91.5065 74.8827C91.5358 74.8894 91.5679 74.8934 91.5999 74.8934C91.6119 74.8934 91.6265 74.8907 91.6425 74.8881C91.6705 74.8907 91.7012 74.8921 91.7345 74.8907C92.1758 74.9161 92.8678 74.6908 93.5398 74.2654C94.4918 73.6654 94.9265 72.7041 94.7758 72.5521C94.6798 72.4574 94.2172 72.4267 93.6478 72.5614C93.7505 72.0267 93.6719 71.6027 93.5305 71.5281" fill="#EF3526"/>
<path d="M75.5349 109.053C75.5909 109.059 75.6429 109.056 75.6909 109.045C75.7216 109.053 75.7522 109.056 75.7842 109.056C75.7975 109.056 75.8109 109.053 75.8269 109.052C75.8549 109.056 75.8856 109.056 75.9189 109.053C76.3589 109.08 77.0522 108.855 77.7229 108.429C78.6749 107.829 79.1122 106.867 78.9602 106.716C78.8669 106.621 78.4003 106.589 77.8323 106.724C77.9349 106.192 77.8549 105.765 77.7149 105.692C77.5522 105.608 77.0082 105.839 76.5069 106.313C76.3415 105.696 76.0255 105.276 75.7562 105.265C75.4615 105.255 75.1229 105.764 74.9856 106.476C74.4176 105.923 73.7656 105.651 73.5962 105.78C73.4656 105.881 73.4095 106.279 73.5255 106.777C72.9589 106.659 72.5055 106.7 72.4175 106.827C72.2775 107.033 72.7549 107.929 73.7323 108.495C74.4083 108.884 75.0935 109.084 75.5349 109.053" fill="#EF3526"/>
<path d="M78.7762 111.025C78.6562 111.117 78.6069 111.461 78.6856 111.899C78.8363 111.62 78.9776 111.333 79.1056 111.033C78.9522 110.987 78.8336 110.98 78.7762 111.025" fill="#EF3526"/>
<path d="M77.5974 112.073C77.5121 112.196 77.6548 112.568 77.9894 112.967C78.2214 112.667 78.4321 112.347 78.6215 112.011C78.0988 111.913 77.6788 111.952 77.5974 112.073" fill="#EF3526"/>
<path d="M68.2734 113.74C68.9507 114.129 69.632 114.329 70.076 114.3C70.1334 114.305 70.1854 114.301 70.2334 114.292C70.264 114.299 70.2934 114.304 70.3267 114.303C70.3387 114.303 70.3547 114.3 70.3694 114.299C70.3987 114.301 70.428 114.303 70.4587 114.3C70.9014 114.325 71.592 114.1 72.2667 113.673C73.216 113.075 73.6547 112.112 73.5013 111.961C73.4093 111.867 72.9441 111.835 72.3747 111.971C72.4761 111.436 72.3974 111.012 72.2574 110.937C72.0961 110.853 71.5507 111.084 71.048 111.559C70.8854 110.941 70.5681 110.52 70.2987 110.512C70.0027 110.5 69.6654 111.011 69.5267 111.721C68.9601 111.168 68.3067 110.896 68.1387 111.025C68.0067 111.127 67.9507 111.525 68.0654 112.023C67.5014 111.905 67.0481 111.945 66.9601 112.073C66.8201 112.279 67.296 113.175 68.2734 113.74" fill="#EF3526"/>
<path d="M63.0935 108.495C63.7695 108.884 64.4548 109.084 64.8974 109.053C64.9521 109.059 65.0041 109.056 65.0534 109.045C65.0841 109.053 65.1134 109.056 65.1454 109.056C65.1601 109.056 65.1747 109.053 65.1867 109.052C65.2187 109.056 65.2481 109.056 65.2801 109.053C65.7228 109.08 66.4134 108.855 67.0881 108.429C68.0388 107.829 68.4734 106.867 68.3227 106.716C68.2281 106.621 67.7641 106.589 67.1961 106.724C67.2988 106.192 67.2187 105.765 67.0761 105.692C66.9147 105.608 66.3708 105.839 65.8694 106.313C65.7068 105.696 65.3894 105.276 65.1174 105.265C64.8254 105.255 64.4867 105.764 64.3481 106.476C63.7801 105.923 63.1281 105.651 62.9601 105.78C62.8281 105.881 62.7734 106.279 62.8881 106.777C62.3241 106.659 61.8667 106.7 61.7814 106.827C61.6414 107.033 62.1161 107.929 63.0935 108.495" fill="#EF3526"/>
<path d="M54.2599 109.053C54.3159 109.059 54.3679 109.056 54.4159 109.045C54.4465 109.053 54.4811 109.056 54.5091 109.056C54.5265 109.056 54.5385 109.053 54.5532 109.052C54.5812 109.056 54.6118 109.056 54.6452 109.053C55.0852 109.08 55.7772 108.855 56.4492 108.429C57.4012 107.829 57.8372 106.867 57.6865 106.716C57.5932 106.621 57.1265 106.589 56.5585 106.724C56.6612 106.192 56.5811 105.765 56.4398 105.692C56.2785 105.608 55.7332 105.839 55.2332 106.313C55.0705 105.696 54.7532 105.276 54.4838 105.265C54.1865 105.255 53.8479 105.764 53.7105 106.476C53.1439 105.923 52.4905 105.651 52.3225 105.78C52.1905 105.881 52.1345 106.279 52.2505 106.777C51.6852 106.659 51.2305 106.7 51.1439 106.827C51.0012 107.033 51.4812 107.929 52.4572 108.495C53.1345 108.884 53.8199 109.084 54.2599 109.053" fill="#EF3526"/>
<path d="M59.5959 101.156C59.6266 101.163 59.6573 101.167 59.6879 101.167C59.7026 101.167 59.7172 101.164 59.7306 101.161C59.7612 101.164 59.7906 101.165 59.8226 101.164C60.2652 101.189 60.9559 100.964 61.6279 100.539C62.5812 99.9387 63.0159 98.976 62.8666 98.824C62.7732 98.7307 62.3052 98.6987 61.7372 98.8334C61.8372 98.3 61.7599 97.8747 61.6172 97.8C61.4572 97.716 60.9132 97.948 60.4119 98.4214C60.2479 97.8054 59.9333 97.3854 59.6626 97.3747C59.3679 97.3641 59.0279 97.8734 58.8892 98.5854C58.3226 98.0307 57.6705 97.76 57.5012 97.888C57.3679 97.9894 57.3146 98.388 57.4279 98.8854C56.8652 98.768 56.4106 98.8081 56.3252 98.9374C56.1839 99.1427 56.6599 100.039 57.6372 100.603C58.3132 100.993 58.9959 101.193 59.4412 101.164C59.4959 101.168 59.5466 101.164 59.5959 101.156" fill="#EF3526"/>
<path d="M88.4681 79.1294C88.5707 78.5961 88.4921 78.1707 88.3508 78.0961C88.1894 78.0121 87.6455 78.2427 87.1441 78.7174C86.9801 78.1014 86.6654 77.68 86.3921 77.6694C86.1001 77.6587 85.7601 78.1693 85.6215 78.8813C85.0561 78.3267 84.4028 78.0547 84.2321 78.184C84.1001 78.2854 84.0455 78.6827 84.1628 79.1813C83.5975 79.0627 83.1441 79.1041 83.0561 79.2321C82.9134 79.4387 83.3894 80.3347 84.3694 80.8974C84.7321 81.1067 85.0948 81.2574 85.4241 81.3521C86.6455 80.4001 88.1628 79.7107 89.3948 79.092C89.4134 79.0814 89.4321 79.0707 89.4495 79.0614C89.2495 79.0214 88.8881 79.0307 88.4681 79.1294" fill="#EF3526"/>
<path d="M62.8666 111.961C62.7732 111.867 62.3052 111.835 61.7372 111.971C61.8372 111.436 61.7599 111.012 61.6172 110.937C61.4572 110.853 60.9132 111.084 60.4119 111.559C60.2479 110.941 59.9333 110.52 59.6626 110.512C59.3679 110.5 59.0279 111.011 58.8892 111.721C58.3226 111.168 57.6705 110.896 57.5012 111.025C57.3679 111.127 57.3146 111.525 57.4279 112.023C56.8652 111.905 56.4106 111.945 56.3252 112.073C56.1839 112.279 56.6599 113.175 57.6372 113.74C58.3132 114.129 58.9959 114.329 59.4412 114.3C59.4959 114.305 59.5466 114.301 59.5959 114.292C59.6266 114.299 59.6573 114.304 59.6879 114.303C59.7026 114.303 59.7172 114.3 59.7306 114.299C59.7612 114.301 59.7906 114.303 59.8226 114.3C60.2652 114.325 60.9559 114.1 61.6279 113.673C62.5812 113.075 63.0159 112.112 62.8666 111.961" fill="#EF3526"/>
<path d="M80.9802 97.3933C80.9655 97.3907 80.9495 97.376 80.9348 97.3747C80.6415 97.364 80.3015 97.8733 80.1642 98.5853C79.5988 98.0307 78.9442 97.76 78.7762 97.888C78.6442 97.9893 78.5882 98.388 78.7055 98.8853C78.1415 98.768 77.6828 98.808 77.5975 98.9373C77.4548 99.1427 77.9335 100.039 78.9095 100.603C79.5468 100.969 80.1815 101.161 80.6242 101.159C80.6909 99.948 80.7682 98.812 80.9162 97.8253C80.9375 97.6827 80.9589 97.536 80.9802 97.3933" fill="#EF3526"/>
<path d="M81.6868 45.876C81.5228 45.26 81.2082 44.8387 80.9348 44.828C80.6415 44.8173 80.3015 45.328 80.1642 46.04C79.5988 45.4866 78.9442 45.2133 78.7762 45.3426C78.6442 45.444 78.5882 45.8426 78.7055 46.34C78.1415 46.2213 77.6828 46.2627 77.5975 46.3907C77.4548 46.5973 77.9335 47.4933 78.9095 48.0573C79.5882 48.4467 80.2722 48.648 80.7148 48.6173C80.7708 48.6226 80.8215 48.6186 80.8695 48.6093C80.8989 48.616 80.9308 48.62 80.9615 48.62C80.9762 48.62 80.9895 48.6173 81.0042 48.616C81.0322 48.6187 81.0655 48.6186 81.0975 48.6173C81.5402 48.6426 82.2295 48.4173 82.9042 47.9933C83.8548 47.3933 84.2922 46.4306 84.1389 46.2786C84.0455 46.184 83.5789 46.1533 83.0109 46.288C83.0762 45.948 83.0615 45.6653 83.0109 45.476C82.9002 45.4026 82.7882 45.3333 82.6722 45.2613C82.4269 45.324 82.0482 45.5346 81.6868 45.876" fill="#EF3526"/>
<path d="M99.8614 65.2427C99.6614 65.2387 99.3974 65.2627 99.1068 65.3307C99.2081 64.7974 99.1295 64.3721 98.9881 64.2974C98.8268 64.2147 98.2815 64.4454 97.7801 64.9188C97.6161 64.3028 97.3015 63.8827 97.0308 63.8707C96.7348 63.8614 96.3961 64.3721 96.2588 65.0827C95.6908 64.5294 95.0401 64.2574 94.8695 64.3867C94.7388 64.4881 94.6841 64.8854 94.7975 65.3854C94.2335 65.2654 93.7801 65.3054 93.6948 65.4334C93.5521 65.6401 94.0281 66.5361 95.0041 67.1001C95.6814 67.4894 96.3668 67.6921 96.8094 67.6601C96.8654 67.6668 96.9175 67.6627 96.9655 67.6534C96.9962 67.6601 97.0268 67.6641 97.0575 67.6641C97.0721 67.6641 97.0855 67.6601 97.1001 67.6587C97.1295 67.6627 97.1601 67.6628 97.1921 67.6601C97.6348 67.6881 98.3268 67.4614 98.9988 67.0361C99.5548 66.6854 99.9241 66.2161 100.117 65.8521C100.039 65.6481 99.9548 65.444 99.8614 65.2427" fill="#EF3526"/>
<path d="M94.7758 59.4147C94.6798 59.3214 94.2172 59.2894 93.6478 59.4254C93.7505 58.8907 93.6719 58.4641 93.5305 58.3908C93.3679 58.3068 92.8252 58.5388 92.3239 59.0134C92.1612 58.3961 91.8425 57.9748 91.5719 57.9654C91.2772 57.9548 90.9399 58.464 90.8025 59.176C90.2332 58.6227 89.5812 58.3494 89.4105 58.4787C89.2799 58.5814 89.2238 58.9787 89.3398 59.4774C88.7758 59.3587 88.3212 59.4001 88.2345 59.5268C88.0932 59.7348 88.5665 60.6294 89.5478 61.1934C90.2225 61.5828 90.9092 61.7841 91.3492 61.7548C91.4065 61.7588 91.4585 61.7547 91.5065 61.7454C91.5358 61.7534 91.5679 61.7574 91.5999 61.7561C91.6119 61.7561 91.6265 61.7548 91.6425 61.7521C91.6705 61.7548 91.7012 61.7561 91.7345 61.7548C92.1758 61.7801 92.8678 61.5547 93.5398 61.1281C94.4918 60.5294 94.9265 59.5667 94.7758 59.4147" fill="#EF3526"/>
<path d="M46.9999 113.74C47.6746 114.129 48.3599 114.329 48.8026 114.3C48.8572 114.305 48.9092 114.301 48.9586 114.292C48.9892 114.299 49.0199 114.304 49.0519 114.303C49.0652 114.303 49.0799 114.3 49.0933 114.299C49.1239 114.301 49.1532 114.303 49.1852 114.3C49.6279 114.325 50.3199 114.1 50.9933 113.673C51.9439 113.075 52.3799 112.112 52.2279 111.961C52.1346 111.867 51.6666 111.835 51.0999 111.971C51.2012 111.436 51.1212 111.012 50.9799 110.937C50.8212 110.853 50.2772 111.084 49.7759 111.559C49.6105 110.941 49.2959 110.52 49.0252 110.512C48.7306 110.5 48.3919 111.011 48.2532 111.721C47.6852 111.168 47.0333 110.896 46.8653 111.025C46.7306 111.127 46.6772 111.525 46.7919 112.023C46.2266 111.905 45.7746 111.945 45.6866 112.073C45.5452 112.279 46.0212 113.175 46.9999 113.74" fill="#EF3526"/>
<path d="M63.0935 94.696C63.7695 95.0853 64.4548 95.2866 64.8974 95.256C64.9521 95.2613 65.0041 95.2573 65.0534 95.248C65.0841 95.2547 65.1134 95.2586 65.1454 95.2586C65.1601 95.2586 65.1747 95.256 65.1867 95.2546C65.2187 95.2573 65.2481 95.2573 65.2801 95.256C65.7228 95.2813 66.4134 95.0573 67.0881 94.6307C68.0388 94.0307 68.4734 93.0693 68.3227 92.9186C68.2281 92.824 67.7641 92.7933 67.1961 92.9267C67.2988 92.3933 67.2187 91.9693 67.0761 91.8933C66.9147 91.8093 66.3708 92.0413 65.8694 92.5147C65.7068 91.8987 65.3894 91.4773 65.1174 91.4667C64.8254 91.456 64.4867 91.968 64.3481 92.6787C63.7801 92.1253 63.1281 91.852 62.9601 91.9813C62.8281 92.0827 62.7734 92.4813 62.8881 92.9787C62.3241 92.86 61.8667 92.9013 61.7814 93.0307C61.6414 93.236 62.1161 94.1307 63.0935 94.696" fill="#EF3526"/>
<path d="M43.7787 95.248C43.8107 95.2547 43.8414 95.2587 43.8721 95.2587C43.8881 95.2587 43.9001 95.256 43.9147 95.2547C43.9441 95.2573 43.9774 95.2573 44.0054 95.256C44.4494 95.2813 45.1401 95.0573 45.8147 94.6307C46.7667 94.0307 47.2014 93.0693 47.0507 92.9187C46.9547 92.824 46.4895 92.7933 45.9215 92.9267C46.0228 92.3933 45.9441 91.9693 45.8014 91.8933C45.6414 91.8093 45.0975 92.0414 44.5961 92.5147C44.4321 91.8987 44.1174 91.4773 43.8454 91.4667C43.6467 91.46 43.4268 91.696 43.2614 92.068C43.1454 93.0627 43.0227 94.0987 42.9067 95.156C43.1774 95.2307 43.4268 95.2693 43.6241 95.256C43.6788 95.2613 43.7294 95.2574 43.7787 95.248" fill="#EF3526"/>
<path d="M46.9999 100.603C47.6746 100.993 48.3599 101.193 48.8026 101.164C48.8572 101.168 48.9092 101.164 48.9586 101.156C48.9892 101.163 49.0199 101.167 49.0519 101.167C49.0652 101.167 49.0799 101.164 49.0933 101.161C49.1239 101.164 49.1532 101.165 49.1852 101.164C49.6279 101.189 50.3199 100.964 50.9933 100.539C51.9439 99.9387 52.3799 98.976 52.2279 98.824C52.1346 98.7307 51.6666 98.6987 51.0999 98.8334C51.2012 98.3 51.1212 97.8747 50.9799 97.8C50.8212 97.716 50.2772 97.948 49.7759 98.4214C49.6105 97.8054 49.2959 97.3854 49.0252 97.3747C48.7306 97.3641 48.3919 97.8734 48.2532 98.5854C47.6852 98.0307 47.0333 97.76 46.8653 97.888C46.7306 97.9894 46.6772 98.388 46.7919 98.8854C46.2266 98.768 45.7746 98.8081 45.6866 98.9374C45.5452 99.1427 46.0212 100.039 46.9999 100.603" fill="#EF3526"/>
<path d="M54.2599 95.256C54.3159 95.2613 54.3679 95.2573 54.4159 95.248C54.4465 95.2547 54.4811 95.2586 54.5091 95.2586C54.5265 95.2586 54.5385 95.256 54.5532 95.2546C54.5812 95.2573 54.6118 95.2573 54.6452 95.256C55.0852 95.2813 55.7772 95.0573 56.4492 94.6307C57.4012 94.0307 57.8372 93.0693 57.6865 92.9186C57.5932 92.824 57.1265 92.7933 56.5585 92.9267C56.6612 92.3933 56.5811 91.9693 56.4398 91.8933C56.2785 91.8093 55.7332 92.0413 55.2332 92.5147C55.0705 91.8987 54.7532 91.4773 54.4838 91.4667C54.1865 91.456 53.8479 91.968 53.7105 92.6787C53.1439 92.1253 52.4905 91.852 52.3225 91.9813C52.1905 92.0827 52.1345 92.4813 52.2505 92.9787C51.6852 92.86 51.2305 92.9013 51.1439 93.0307C51.0012 93.236 51.4812 94.1307 52.4572 94.696C53.1345 95.0853 53.8199 95.2866 54.2599 95.256" fill="#EF3526"/>
<path d="M59.5959 88.0187C59.6266 88.0267 59.6573 88.0307 59.6879 88.0294C59.7026 88.0294 59.7172 88.0267 59.7306 88.0254C59.7612 88.028 59.7906 88.0281 59.8226 88.0267C60.2652 88.0521 60.9559 87.8267 61.6279 87.4027C62.5812 86.8014 63.0159 85.8387 62.8666 85.6881C62.7732 85.5947 62.3052 85.5627 61.7372 85.6974C61.8372 85.164 61.7599 84.7387 61.6172 84.664C61.4572 84.58 60.9132 84.812 60.4119 85.2867C60.2479 84.6694 59.9333 84.248 59.6626 84.2387C59.3679 84.2267 59.0279 84.7387 58.8892 85.4494C58.3226 84.8961 57.6705 84.6227 57.5012 84.7521C57.3679 84.8534 57.3146 85.252 57.4279 85.7507C56.8652 85.6307 56.4106 85.672 56.3252 85.8C56.1839 86.0067 56.6599 86.9014 57.6372 87.4667C58.3132 87.856 58.9959 88.0574 59.4412 88.0267C59.4959 88.0307 59.5466 88.0281 59.5959 88.0187" fill="#EF3526"/>
<path d="M55.2332 64.9188C55.0705 64.3028 54.7532 63.8827 54.4838 63.8707C54.1865 63.8614 53.8479 64.3721 53.7105 65.0827C53.1439 64.5294 52.4905 64.2574 52.3225 64.3867C52.1905 64.4881 52.1345 64.8854 52.2505 65.3854C51.6852 65.2654 51.2305 65.3054 51.1439 65.4334C51.0012 65.6401 51.4812 66.5361 52.4572 67.1001C53.1345 67.4894 53.8199 67.6921 54.2599 67.6601C54.3159 67.6668 54.3679 67.6627 54.4159 67.6534C54.4465 67.6601 54.4811 67.6641 54.5091 67.6641C54.5265 67.6641 54.5385 67.6601 54.5532 67.6587C54.5812 67.6627 54.6118 67.6628 54.6452 67.6601C55.0852 67.6881 55.7772 67.4614 56.4492 67.0361C57.4012 66.4361 57.8372 65.4734 57.6865 65.3227C57.5932 65.2281 57.1265 65.1974 56.5585 65.3307C56.6612 64.7974 56.5811 64.3721 56.4398 64.2974C56.2785 64.2147 55.7332 64.4454 55.2332 64.9188" fill="#EF3526"/>
<path d="M39.1388 72.1494C38.9748 71.5321 38.6587 71.1121 38.3867 71.1027C38.0947 71.0907 37.7534 71.6014 37.6161 72.3134C37.0481 71.7587 36.3974 71.4867 36.2254 71.6147C36.0947 71.7174 36.0414 72.116 36.1548 72.6147C35.5934 72.4947 35.1361 72.5361 35.0507 72.6641C34.9081 72.8707 35.3841 73.7667 36.3628 74.3307C37.0388 74.7187 37.7241 74.9201 38.1667 74.8907C38.2214 74.8947 38.2721 74.8907 38.3201 74.8827C38.3507 74.8894 38.3841 74.8934 38.4134 74.8934C38.4294 74.8934 38.4414 74.8907 38.4561 74.8881C38.4854 74.8907 38.5161 74.8921 38.5481 74.8907C38.9934 74.9161 39.6827 74.6908 40.3561 74.2654C41.3081 73.6654 41.7414 72.7041 41.5921 72.5521C41.4974 72.4574 41.0307 72.4267 40.4641 72.5614C40.5654 72.0267 40.4868 71.6027 40.3441 71.5281C40.1814 71.4427 39.6388 71.6761 39.1388 72.1494" fill="#EF3526"/>
<path d="M81.6868 59.0134C81.5228 58.3961 81.2082 57.9748 80.9348 57.9654C80.6415 57.9548 80.3015 58.464 80.1642 59.176C79.5988 58.6227 78.9442 58.3494 78.7762 58.4787C78.6442 58.5814 78.5882 58.9787 78.7055 59.4774C78.1415 59.3587 77.6828 59.4001 77.5975 59.5268C77.4548 59.7348 77.9335 60.6294 78.9095 61.1934C79.5882 61.5828 80.2722 61.7841 80.7148 61.7548C80.7708 61.7588 80.8215 61.7547 80.8695 61.7454C80.8989 61.7534 80.9308 61.7574 80.9615 61.7561C80.9762 61.7561 80.9895 61.7548 81.0042 61.7521C81.0322 61.7548 81.0655 61.7561 81.0975 61.7548C81.5402 61.7801 82.2295 61.5547 82.9042 61.1281C83.8548 60.5294 84.2922 59.5667 84.1389 59.4147C84.0455 59.3214 83.5789 59.2894 83.0109 59.4254C83.1109 58.8907 83.0349 58.4641 82.8935 58.3908C82.7309 58.3068 82.1868 58.5388 81.6868 59.0134" fill="#EF3526"/>
<path d="M84.1389 72.5521C84.0455 72.4574 83.5789 72.4267 83.0109 72.5614C83.1109 72.0267 83.0349 71.6027 82.8935 71.5281C82.7309 71.4427 82.1868 71.6761 81.6868 72.1494C81.5228 71.5321 81.2082 71.1121 80.9348 71.1027C80.6415 71.0907 80.3015 71.6014 80.1642 72.3134C79.5988 71.7587 78.9442 71.4867 78.7762 71.6147C78.6442 71.7174 78.5882 72.116 78.7055 72.6147C78.1415 72.4947 77.6828 72.5361 77.5975 72.6641C77.4548 72.8707 77.9335 73.7667 78.9095 74.3307C79.5882 74.7187 80.2722 74.9201 80.7148 74.8907C80.7708 74.8947 80.8215 74.8907 80.8695 74.8827C80.8989 74.8894 80.9308 74.8934 80.9615 74.8934C80.9762 74.8934 80.9895 74.8907 81.0042 74.8881C81.0322 74.8907 81.0655 74.8921 81.0975 74.8907C81.5402 74.9161 82.2295 74.6908 82.9042 74.2654C83.8548 73.6654 84.2922 72.7041 84.1389 72.5521" fill="#EF3526"/>
<path d="M39.1388 59.0134C38.9748 58.3961 38.6587 57.9748 38.3867 57.9654C38.0947 57.9548 37.7534 58.464 37.6161 59.176C37.0481 58.6227 36.3974 58.3494 36.2254 58.4787C36.0947 58.5814 36.0414 58.9787 36.1548 59.4774C35.5934 59.3587 35.1361 59.4001 35.0507 59.5268C34.9081 59.7348 35.3841 60.6294 36.3628 61.1934C37.0388 61.5828 37.7241 61.7841 38.1667 61.7548C38.2214 61.7588 38.2721 61.7547 38.3201 61.7454C38.3507 61.7534 38.3841 61.7574 38.4134 61.7561C38.4294 61.7561 38.4414 61.7548 38.4561 61.7521C38.4854 61.7548 38.5161 61.7561 38.5481 61.7548C38.9934 61.7801 39.6827 61.5547 40.3561 61.1281C41.3081 60.5294 41.7414 59.5667 41.5921 59.4147C41.4974 59.3214 41.0307 59.2894 40.4641 59.4254C40.5654 58.8907 40.4868 58.4641 40.3441 58.3908C40.1814 58.3068 39.6388 58.5388 39.1388 59.0134" fill="#EF3526"/>
<path d="M55.2332 51.1214C55.0705 50.5054 54.7532 50.084 54.4838 50.0747C54.1865 50.0627 53.8479 50.5734 53.7105 51.2854C53.1439 50.7321 52.4905 50.4601 52.3225 50.5881C52.1905 50.6907 52.1345 51.0894 52.2505 51.5867C51.6852 51.4667 51.2305 51.508 51.1439 51.636C51.0012 51.8427 51.4812 52.7387 52.4572 53.3027C53.1345 53.6934 53.8199 53.8934 54.2599 53.8614C54.3159 53.8694 54.3679 53.8654 54.4159 53.8547C54.4465 53.8614 54.4811 53.8667 54.5091 53.8667C54.5265 53.8667 54.5385 53.8614 54.5532 53.8601C54.5812 53.8654 54.6118 53.8654 54.6452 53.8614C55.0852 53.8894 55.7772 53.6627 56.4492 53.2387C57.4012 52.6387 57.8372 51.6761 57.6865 51.5241C57.5932 51.4307 57.1265 51.3987 56.5585 51.5334C56.6612 51 56.5811 50.5747 56.4398 50.5C56.2785 50.416 55.7332 50.6481 55.2332 51.1214" fill="#EF3526"/>
<path d="M68.2734 87.4667C68.9507 87.856 69.632 88.0574 70.076 88.0267C70.1334 88.0307 70.1854 88.0281 70.2334 88.0187C70.264 88.0267 70.2934 88.0307 70.3267 88.0294C70.3387 88.0294 70.3547 88.0267 70.3694 88.0254C70.3987 88.028 70.428 88.0281 70.4587 88.0267C70.9014 88.0521 71.592 87.8267 72.2667 87.4027C73.216 86.8014 73.6547 85.8387 73.5013 85.6881C73.4093 85.5947 72.9441 85.5627 72.3747 85.6974C72.4761 85.164 72.3974 84.7387 72.2574 84.664C72.0961 84.58 71.5507 84.812 71.048 85.2867C70.8854 84.6694 70.5681 84.248 70.2987 84.2387C70.0027 84.2267 69.6654 84.7387 69.5267 85.4494C68.9601 84.8961 68.3067 84.6227 68.1387 84.7521C68.0067 84.8534 67.9507 85.252 68.0654 85.7507C67.5014 85.6307 67.0481 85.672 66.9601 85.8C66.8201 86.0067 67.296 86.9014 68.2734 87.4667" fill="#EF3526"/>
<path d="M75.5349 95.256C75.5909 95.2613 75.6429 95.2573 75.6909 95.248C75.7216 95.2547 75.7522 95.2586 75.7842 95.2586C75.7975 95.2586 75.8109 95.256 75.8269 95.2546C75.8549 95.2573 75.8856 95.2573 75.9189 95.256C76.3589 95.2813 77.0522 95.0573 77.7229 94.6307C78.6749 94.0307 79.1122 93.0693 78.9602 92.9186C78.8669 92.824 78.4003 92.7933 77.8323 92.9267C77.9349 92.3933 77.8549 91.9693 77.7149 91.8933C77.5522 91.8093 77.0082 92.0413 76.5069 92.5147C76.3415 91.8987 76.0255 91.4773 75.7562 91.4667C75.4615 91.456 75.1229 91.968 74.9856 92.6787C74.4176 92.1253 73.7656 91.852 73.5962 91.9813C73.4656 92.0827 73.4095 92.4813 73.5255 92.9787C72.9589 92.86 72.5055 92.9013 72.4175 93.0307C72.2775 93.236 72.7549 94.1307 73.7323 94.696C74.4083 95.0853 75.0935 95.2866 75.5349 95.256" fill="#EF3526"/>
<path d="M68.2734 100.603C68.9507 100.993 69.632 101.193 70.076 101.164C70.1334 101.168 70.1854 101.164 70.2334 101.156C70.264 101.163 70.2934 101.167 70.3267 101.167C70.3387 101.167 70.3547 101.164 70.3694 101.161C70.3987 101.164 70.428 101.165 70.4587 101.164C70.9014 101.189 71.592 100.964 72.2667 100.539C73.216 99.9387 73.6547 98.976 73.5013 98.824C73.4093 98.7307 72.9441 98.6987 72.3747 98.8334C72.4761 98.3 72.3974 97.8747 72.2574 97.8C72.0961 97.716 71.5507 97.948 71.048 98.4214C70.8854 97.8054 70.5681 97.3854 70.2987 97.3747C70.0027 97.3641 69.6654 97.8734 69.5267 98.5854C68.9601 98.0307 68.3067 97.76 68.1387 97.888C68.0067 97.9894 67.9507 98.388 68.0654 98.8854C67.5014 98.768 67.0481 98.8081 66.9601 98.9374C66.8201 99.1427 67.296 100.039 68.2734 100.603" fill="#EF3526"/>
<path d="M66.9375 41.3574C66.4202 38.7734 65.6029 35.6041 63.8149 34.1414C63.1242 33.5748 62.4616 33.7481 61.7696 34.1628C60.2749 35.0601 59.0563 36.3801 57.4629 37.0921C56.7949 37.3907 56.1189 37.7188 55.4443 37.9934C54.9349 38.2028 54.2976 38.2641 53.8269 38.6067C53.6403 38.7427 53.4762 38.8854 53.3256 39.0334C53.4442 38.6721 53.0363 38.3654 52.8776 38.7294C52.5696 39.4214 52.3042 40.1734 52.0762 40.9574C52.0082 41.1068 51.9415 41.2627 51.8735 41.4254C51.8255 41.5374 51.8322 41.6441 51.8669 41.7321C51.3336 43.7948 51.0189 46.0334 50.8509 48.0734C50.6042 51.0707 51.1642 53.9734 53.3229 55.3748C55.4829 56.7761 58.6109 56.3241 60.9002 55.9974C63.2376 55.6641 65.2962 53.7254 66.4869 51.0161C67.8336 47.9534 67.5882 44.6028 66.9375 41.3574" fill="#F89E67"/>
<path d="M66.6266 17.976C65.7012 14.1187 65.4292 10.2054 61.4626 8.82273C54.2532 6.30939 43.5666 10.1174 45.7906 19.2454C45.6359 22.2494 45.0826 25.2094 44.7799 28.204C44.6679 29.304 43.9572 31.4534 44.9266 32.4214C46.0372 33.5334 47.8079 32.7601 48.4999 34.7188C49.2079 36.7308 49.9305 38.6641 51.1745 40.4134C53.4199 43.5641 57.6385 44.1254 61.1678 43.4574C65.4958 42.6401 65.8412 38.1667 66.9719 34.3094C68.4705 29.2067 67.8492 23.0654 66.6266 17.976" fill="#F89E67"/>
<path d="M52.0388 25.3454C51.9308 25.2894 51.8228 25.2614 51.7148 25.2427C51.3761 24.9814 50.7735 25.0201 50.6028 25.5601C50.5388 25.7654 50.4922 26.0107 50.4695 26.268C50.4388 26.46 50.4375 26.652 50.4681 26.8427C50.5361 27.7427 50.9575 28.5814 52.0322 28.3547C52.6629 28.2214 52.8641 27.46 52.8455 26.912C52.8281 26.3174 52.6002 25.6334 52.0388 25.3454" fill="#EE2922"/>
<path d="M54.6318 34.1573C54.5892 34.9426 54.1584 35.5786 53.5398 36.0386C52.8904 36.52 52.1812 36.1053 51.4985 35.9679C51.0665 35.8813 50.8838 36.54 51.3171 36.6266C52.2464 36.8146 52.9985 37.2013 53.8825 36.6279C54.7291 36.0813 55.2611 35.1546 55.3144 34.1573C55.3384 33.7173 54.6558 33.7186 54.6318 34.1573Z" fill="#F57850"/>
<path d="M53.5187 22.4213C52.7427 21.4187 51.256 21.0253 50.0453 21.2493C49.6093 21.328 49.7574 21.996 50.188 21.916C51.1814 21.732 52.3853 22.068 53.0173 22.8827C53.284 23.232 53.7854 22.768 53.5187 22.4213Z" fill="#F57850"/>
<path d="M53.7134 30.5414C53.7107 30.5614 53.808 30.5241 53.828 30.5214C53.7933 30.4974 53.688 30.5507 53.7134 30.5414Z" fill="#F57850"/>
<path d="M53.4176 30.3507L53.3096 30.364L53.3776 30.3667L53.4176 30.3507Z" fill="#F57850"/>
<path d="M53.2322 30.1601C53.1055 30.2814 53.3135 30.2134 53.2868 30.2854L53.2602 30.312L53.3895 30.2547C53.3361 30.2187 53.2175 30.2174 53.2322 30.1601" fill="#F57850"/>
<path d="M53.4372 29.8453C53.4439 29.8387 53.4439 29.8334 53.4466 29.8294C53.4426 29.8254 53.4346 29.816 53.4266 29.804C53.3826 29.8587 53.3585 29.8187 53.4372 29.8453" fill="#F57850"/>
<path d="M53.4468 29.8294C53.4721 29.8507 53.4761 29.7747 53.4468 29.8294Z" fill="#F57850"/>
<path d="M53.4107 29.6667C53.352 29.66 53.3333 29.6947 53.3066 29.7587L53.3813 29.7427C53.404 29.708 53.38 29.6773 53.4107 29.6667" fill="#F57850"/>
<path d="M53.1865 29.8253L53.2212 29.8187C53.2292 29.8053 53.2292 29.7973 53.1865 29.8253Z" fill="#F57850"/>
<path d="M53.2482 29.8187C53.2122 29.8534 53.2522 29.8227 53.2922 29.8094L53.2216 29.8187C53.2056 29.8441 53.1669 29.8841 53.2482 29.8187Z" fill="#F57850"/>
<path d="M53.2148 29.936C53.2855 29.9667 53.3736 29.8787 53.2936 29.844C53.2842 29.8853 53.2868 29.9187 53.2148 29.936Z" fill="#F57850"/>
<path d="M53.0799 30.2601L53.0532 30.3081L53.1132 30.2894C53.0852 30.3001 53.1226 30.2268 53.0799 30.2601" fill="#F57850"/>
<path d="M53.0786 29.6506L53.128 29.636C53.1306 29.6067 53.1213 29.5706 53.1506 29.5253C53.1266 29.5533 53.1053 29.612 53.0786 29.6506Z" fill="#F57850"/>
<path d="M53.0788 29.6506C53.0788 29.6493 53.0015 29.68 53.0015 29.68C53.0321 29.7026 53.0548 29.6853 53.0788 29.6506Z" fill="#F57850"/>
<path d="M53.1201 29.9334C53.1587 29.9214 53.1947 29.9081 53.1947 29.9081C53.1947 29.9081 53.1534 29.9201 53.1161 29.9308C53.0761 29.9428 53.04 29.9548 53.04 29.9548L53.0494 29.9614C53.0494 29.9614 53.0867 29.9481 53.1201 29.9334" fill="#F57850"/>
<path d="M52.9935 29.4361L53.0641 29.3774L52.9521 29.4614L52.9935 29.4361Z" fill="#F57850"/>
<path d="M52.8787 29.3947C52.9294 29.3427 52.9081 29.2786 52.9481 29.2506C52.9107 29.2466 52.8561 29.2867 52.8081 29.324C52.8441 29.308 52.8707 29.328 52.8787 29.3947Z" fill="#F57850"/>
<path d="M52.7358 29.38C52.7558 29.3693 52.7785 29.3453 52.8078 29.324C52.7878 29.3307 52.7638 29.3493 52.7358 29.38Z" fill="#F57850"/>
<path d="M52.9346 29.6199L52.9479 29.6306C52.9559 29.6093 52.9852 29.56 52.9759 29.5266L52.9346 29.6199Z" fill="#F57850"/>
<path d="M52.9335 29.6227L52.9348 29.62C52.9188 29.6093 52.9082 29.6014 52.9028 29.5987C52.9068 29.6014 52.9148 29.6093 52.9335 29.6227Z" fill="#F57850"/>
<path d="M52.9507 29.6334L52.948 29.6307C52.944 29.6387 52.9427 29.6427 52.9507 29.6334Z" fill="#F57850"/>
<path d="M52.8799 29.972C52.9359 29.9267 52.9439 29.872 53.0292 29.8254C52.9732 29.8547 52.8985 29.8774 52.8799 29.972Z" fill="#F57850"/>
<path d="M52.9215 29.7866C52.9375 29.764 52.9534 29.7279 52.9814 29.7119L52.8975 29.7479L52.9215 29.7866Z" fill="#F57850"/>
<path d="M52.8599 29.7654L52.8972 29.748L52.8892 29.7333L52.8599 29.7654Z" fill="#F57850"/>
<path d="M52.7678 29.4973C52.7278 29.528 52.7105 29.52 52.6812 29.5187C52.6985 29.5467 52.7172 29.5693 52.7412 29.5786C52.7585 29.5519 52.7958 29.5066 52.7678 29.4973Z" fill="#F57850"/>
<path d="M52.8439 29.5667C52.8412 29.5681 52.8398 29.568 52.8372 29.568C52.8345 29.5774 52.8359 29.5814 52.8439 29.5667Z" fill="#F57850"/>
<path d="M52.4548 29.4507C52.4535 29.456 52.4535 29.4614 52.4521 29.4694L52.4588 29.4533L52.4548 29.4507Z" fill="#F57850"/>
<path d="M52.7359 29.5987C52.7439 29.624 52.7653 29.6067 52.7906 29.584C52.772 29.5867 52.7559 29.5853 52.7413 29.5786C52.7319 29.5906 52.7253 29.6 52.7359 29.5987Z" fill="#F57850"/>
<path d="M52.6494 29.4027C52.6507 29.424 52.6547 29.4453 52.6587 29.464C52.6641 29.432 52.6627 29.3787 52.6494 29.4027Z" fill="#F57850"/>
<path d="M52.8452 29.5414C52.8465 29.5414 52.8479 29.54 52.8519 29.54C52.8559 29.5173 52.8519 29.5267 52.8452 29.5414Z" fill="#F57850"/>
<path d="M52.8451 29.5413C52.8305 29.5493 52.8092 29.568 52.7905 29.584C52.8052 29.5813 52.8211 29.5773 52.8371 29.568C52.8385 29.5613 52.8411 29.552 52.8451 29.5413" fill="#F57850"/>
<path d="M52.5292 29.5027L52.5532 29.496C52.5372 29.4747 52.5371 29.436 52.5345 29.3587C52.4878 29.3933 52.4692 29.424 52.4585 29.4533L52.5398 29.4907L52.5292 29.5027Z" fill="#F57850"/>
<path d="M52.6307 29.5187C52.5733 29.608 52.52 29.6373 52.5 29.7453C52.548 29.752 52.564 29.6773 52.6133 29.6453C52.524 29.644 52.6613 29.6013 52.6253 29.5307C52.6507 29.5187 52.6666 29.5187 52.6813 29.5187C52.672 29.504 52.6653 29.4853 52.6587 29.464V29.4706V29.4693V29.472C52.656 29.484 52.6547 29.492 52.6533 29.4827C52.6533 29.484 52.652 29.484 52.6507 29.484C52.6453 29.4986 52.6374 29.508 52.6294 29.5187C52.616 29.4933 52.6373 29.4933 52.6507 29.484L52.6587 29.472V29.4706L52.5533 29.496C52.564 29.5147 52.5867 29.5187 52.6307 29.5187" fill="#F57850"/>
<path d="M52.7108 30.1267C52.7148 30.1174 52.7174 30.112 52.7227 30.1067C52.7134 30.1147 52.7041 30.12 52.7108 30.1267Z" fill="#F57850"/>
<path d="M52.7227 30.0627C52.7373 30.0547 52.7667 30.0214 52.772 30.0387C52.7653 30.0721 52.7427 30.0787 52.7227 30.1067C52.7467 30.0894 52.7947 30.068 52.8 30.0094L52.7893 30.0161C52.788 29.9747 52.8267 29.8521 52.8387 29.8414C52.7933 29.9214 52.7627 29.9801 52.7227 30.0627Z" fill="#F57850"/>
<path d="M52.6068 29.8334L52.5908 29.9268L52.6148 29.8787C52.6334 29.9134 52.6628 29.852 52.6855 29.8174L52.6068 29.8334Z" fill="#F57850"/>
<path d="M52.4629 29.4L52.5068 29.3027L52.4175 29.4333L52.4629 29.4Z" fill="#F57850"/>
<path d="M52.3535 29.3454L52.3656 29.3867L52.3936 29.2988L52.3535 29.3454Z" fill="#F57850"/>
<path d="M50.1895 29.9813C50.1068 29.9426 49.9788 29.8746 50.0561 29.944L50.1388 30.0066C50.1415 29.9799 50.1655 29.9759 50.1895 29.9813" fill="#F57850"/>
<path d="M51.3999 29.4254C51.3665 29.3907 51.3425 29.3814 51.3252 29.3801C51.3692 29.4294 51.4052 29.508 51.3999 29.4254Z" fill="#F57850"/>
<path d="M50.2642 32.5468C50.2428 32.5521 50.2228 32.5628 50.2095 32.5854C50.2308 32.5788 50.2482 32.5654 50.2642 32.5468Z" fill="#F57850"/>
<path d="M51.2466 29.3974C51.2519 29.4067 51.2572 29.4094 51.2639 29.4174C51.2812 29.3974 51.2986 29.3787 51.3252 29.3801C51.2919 29.3427 51.2559 29.324 51.2466 29.3974Z" fill="#F57850"/>
<path d="M53.6372 30.8414C53.6439 30.8481 53.6466 30.8628 53.6493 30.8748C53.6573 30.8694 53.6545 30.8588 53.6372 30.8414Z" fill="#F57850"/>
<path d="M52.0146 29.7507C52.0226 29.7254 52.028 29.7121 52.0307 29.7028C52.0253 29.7134 52.0186 29.7281 52.0146 29.7507Z" fill="#F57850"/>
<path d="M52.0132 29.2974C52.0199 29.3028 52.0252 29.3054 52.0305 29.3081C52.0358 29.2921 52.0345 29.2814 52.0132 29.2974Z" fill="#F57850"/>
<path d="M51.9868 29.2961C51.9815 29.2974 51.9709 29.2987 51.9575 29.2987C51.9682 29.2987 51.9815 29.3053 51.9909 29.312C51.9869 29.3053 51.9855 29.3001 51.9868 29.2961" fill="#F57850"/>
<path d="M52.548 32.6188L52.5227 32.6001C52.5294 32.5574 52.5374 32.5868 52.548 32.6188ZM50.0147 31.4147C50.012 31.4147 49.9321 31.3574 49.9321 31.3561C49.9588 31.3467 50.0121 31.3521 50.0774 31.3587C50.0654 31.3547 50.0534 31.3521 50.0414 31.3494C50.0641 31.3401 50.0921 31.3374 50.1214 31.3361C50.1214 31.3441 50.1214 31.3548 50.1214 31.3614C50.1068 31.3601 50.0921 31.3601 50.0774 31.3587C50.0921 31.3614 50.1067 31.3654 50.1201 31.3694C50.1214 31.3721 50.1201 31.3788 50.1201 31.3828C50.0734 31.3934 50.0347 31.4054 50.0147 31.4147ZM50.3628 30.6507C50.3561 30.6601 50.348 30.6694 50.34 30.6801C50.2494 30.6041 50.1827 30.5414 50.1827 30.5414C50.2241 30.5694 50.2921 30.6094 50.3628 30.6507ZM50.5334 30.0214L50.5921 30.0734L50.5881 29.9748C50.6214 30.0508 50.6787 30.1641 50.7374 30.2787C50.7174 30.2947 50.6974 30.3094 50.676 30.3268C50.5987 30.2028 50.5334 30.0828 50.5334 30.0214ZM51.0321 30.0534C51.0428 30.0667 51.0481 30.0841 51.0561 30.0988C51.0414 30.1055 51.0241 30.1108 51.0107 30.1188L50.9294 29.9641L51.0027 30.1214C50.9881 30.1294 50.9734 30.1387 50.9561 30.1454C50.8907 30.0267 50.8334 29.9214 50.8161 29.8721C50.8281 29.8748 50.9774 29.9774 51.0321 30.0534ZM51.204 29.9347C51.2134 29.9667 51.2294 30.0014 51.2414 30.0254C51.2294 30.0307 51.2147 30.0361 51.2027 30.0401C51.1974 29.9921 51.1974 29.9534 51.204 29.9347ZM51.5214 29.6641C51.5788 29.6028 51.5641 29.7827 51.5694 29.7534C51.6814 29.7787 51.6494 29.4068 51.7587 29.5414C51.7987 29.6641 51.76 29.7881 51.7707 29.8774C51.7254 29.9268 51.7001 29.8027 51.6654 29.8094L51.7081 29.8655C51.6934 29.9081 51.6667 29.9414 51.648 29.9054C51.6534 29.9188 51.6588 29.9267 51.6654 29.9347C51.5961 29.9427 51.5307 29.9508 51.4641 29.9641C51.4601 29.8441 51.4774 29.7321 51.5214 29.6641V29.6641ZM51.7614 29.3908C51.7601 29.3934 51.7601 29.3948 51.7601 29.3974C51.7254 29.3574 51.7374 29.3721 51.7614 29.3908ZM52.2268 29.9614C52.2268 29.9641 52.2267 29.9641 52.2254 29.9668C52.2241 29.9668 52.2241 29.9655 52.2227 29.9655L52.2268 29.9614ZM52.2881 29.9814C52.2734 29.9761 52.2547 29.9734 52.2374 29.9694C52.2627 29.9361 52.2868 29.9307 52.2881 29.9814ZM53.6494 30.8748C53.6334 30.8948 53.544 30.8881 53.484 30.8974C53.484 30.8974 53.5214 30.8667 53.5587 30.8374C53.5961 30.8027 53.6321 30.7707 53.6321 30.7707C53.4668 30.7827 53.5987 30.6588 53.4454 30.6881L53.4774 30.7108C53.3774 30.7174 53.2694 30.7587 53.1548 30.8041C53.1508 30.7801 53.1454 30.7561 53.1387 30.7321C53.0307 30.3788 52.7361 30.1214 52.3601 30.0028C52.3601 30.0014 52.3601 30.0014 52.3614 30.0001L52.3787 29.9521C52.3627 29.9494 52.3401 29.9721 52.3387 29.9948C52.3254 29.9908 52.3121 29.9868 52.2961 29.9828C52.3494 29.9094 52.4361 29.6361 52.4521 29.4694C52.4374 29.5068 52.4254 29.5428 52.368 29.5828C52.368 29.6361 52.4148 29.7214 52.3548 29.7921C52.2921 29.8241 52.3267 29.7508 52.3187 29.6961C52.3027 29.8001 52.2281 29.8334 52.1908 29.9561C52.1681 29.9534 52.1467 29.9494 52.1254 29.9454L52.1427 29.8334L52.1094 29.9241L52.1214 29.9454C52.0574 29.9361 51.9921 29.9281 51.9227 29.9268C51.9254 29.9134 51.9308 29.9001 51.9294 29.8854L51.9027 29.9001C51.8881 29.7974 51.9641 29.7654 51.9361 29.7161C51.9774 29.6481 52.0387 29.5427 52.0867 29.6041L52.0721 29.7481C52.0801 29.7067 52.0534 29.6601 52.0321 29.7001C52.0641 29.6414 52.0774 29.9014 52.1361 29.7188L52.1147 29.6174C52.1667 29.5494 52.2548 29.4081 52.2988 29.4587C52.3094 29.3187 52.2841 29.4734 52.2827 29.3067C52.2721 29.5121 52.1387 29.2814 52.1534 29.5001C52.1481 29.3068 52.1014 29.4134 52.0667 29.2454C52.0627 29.2921 52.0761 29.3361 52.0307 29.3081C52.0281 29.3228 52.0187 29.3387 52.0147 29.3481L52.012 29.3454L52.0134 29.3521C52.0107 29.3588 52.0107 29.3601 52.0147 29.3521C52.024 29.3748 52.0307 29.4001 52.0307 29.4254C51.9947 29.5321 51.9267 29.5187 51.9001 29.5787C51.8761 29.5574 51.9147 29.5241 51.9027 29.4748L51.8641 29.5601C51.8667 29.4561 51.7987 29.3907 51.8667 29.3254L51.8067 29.3241C51.7734 29.2681 51.7214 29.2467 51.6908 29.2921C51.6614 29.2721 51.6267 29.4121 51.6454 29.3295L51.5587 29.4001L51.5561 29.3748C51.4587 29.3761 51.4041 29.5774 51.2641 29.4174C51.2401 29.4494 51.2174 29.4867 51.1628 29.4707L51.1268 29.3867C51.0974 29.4254 50.9828 29.3428 50.9988 29.4361C50.8721 29.2268 50.7854 29.4614 50.7054 29.4507L50.7548 29.5561C50.7054 29.5667 50.6814 29.6227 50.6548 29.6921L50.7107 29.7787C50.7134 29.8774 50.5641 29.7788 50.5001 29.8308C50.4814 29.7948 50.5041 29.7934 50.5307 29.8054C50.4227 29.7361 50.4001 29.7975 50.3921 29.8655C50.3867 29.9375 50.3907 30.0094 50.3014 29.9721C50.3107 30.0148 50.2894 30.0148 50.2601 30.0054C50.2614 30.0028 50.2601 30.0014 50.2601 29.9974C50.2574 29.9988 50.2561 30.0001 50.2534 30.0028C50.2321 29.9974 50.2107 29.9881 50.1894 29.9814C50.2161 29.9947 50.236 30.0028 50.248 30.0054C50.236 30.0188 50.2254 30.0441 50.2281 30.0787L50.1387 30.0067C50.1387 30.0094 50.1374 30.0108 50.1374 30.0134C50.0854 30.0014 50.1614 30.0627 50.2321 30.1121C50.2361 30.1334 50.2454 30.1547 50.2601 30.1787C50.1081 30.0681 50.2614 30.2587 50.0961 30.1534C50.1601 30.2267 50.0721 30.2921 50.2281 30.4174C50.2081 30.4027 50.1934 30.4001 50.2001 30.3908C50.1654 30.3961 50.1281 30.4027 50.1641 30.4507L50.0347 30.3787C50.0347 30.3787 50.0667 30.4161 50.1014 30.4534C50.132 30.4894 50.1667 30.5254 50.1667 30.5254C50.0707 30.5041 50.0174 30.4908 49.9414 30.4054C50.0427 30.5601 49.9601 30.4974 50.0774 30.6334L49.9961 30.5867C49.9854 30.6121 50.0827 30.6974 50.004 30.6774C49.9107 30.6641 49.8668 30.7214 49.8321 30.7921C49.8001 30.8667 49.7721 30.9521 49.6641 31.0081C49.9534 31.0281 49.5147 31.0561 49.7374 31.0948C49.6667 31.0948 49.628 31.1121 49.5707 31.0801C49.6294 31.1641 49.452 31.1974 49.6347 31.2601C49.564 31.2668 49.5374 31.2401 49.4947 31.2468C49.5081 31.2534 49.5521 31.2734 49.5107 31.2828C49.4694 31.2894 49.4548 31.2694 49.4268 31.2534C49.4308 31.3454 49.6414 31.3467 49.8387 31.3454C49.7454 31.3841 49.7534 31.4068 49.8867 31.4188C49.8241 31.4374 49.7587 31.4654 49.7281 31.4214C49.7227 31.4468 49.6574 31.5961 49.8174 31.5694C49.7774 31.5841 49.8121 31.6067 49.8321 31.6094C49.8321 31.6667 49.8187 31.6747 49.8427 31.7254L49.8654 31.7028C50.0534 31.6708 49.9174 31.7321 49.9574 31.7641L49.9374 31.7694C49.848 31.9108 50.0147 31.7814 49.9107 31.9334L50.0174 31.8787C50.2534 31.7734 49.9107 32.0228 50.0334 32.0268L50.0801 31.9774C50.1707 31.9521 49.8347 32.2267 49.8361 32.2787C49.8227 32.2974 49.7987 32.2894 49.7774 32.2881C49.7161 32.4534 49.9147 32.2121 49.9854 32.2454C49.9281 32.3054 49.8041 32.3574 49.8241 32.4067C49.7908 32.4734 50.1201 32.3481 50.0561 32.4881C50.0894 32.4348 50.1254 32.3828 50.184 32.3694C50.2307 32.3788 50.1214 32.6281 50.2894 32.5028C50.2814 32.5214 50.2734 32.5361 50.2641 32.5468C50.3254 32.5334 50.4107 32.5494 50.4947 32.4681C50.3907 32.6387 50.4747 32.6281 50.5441 32.6054C50.6174 32.5828 50.6814 32.5521 50.5961 32.7134C50.5948 32.7161 50.7054 32.7414 50.7067 32.7374L50.6894 32.7707C50.7467 32.8147 50.8068 32.7414 50.8601 32.6668C50.8668 32.6934 50.8427 32.7228 50.8334 32.7388C50.9054 32.8361 50.9307 32.8281 51.0561 32.6748L51.0347 32.7867C51.0667 32.7241 51.1454 32.9841 51.2721 32.8614C51.2694 32.8734 51.2627 32.8947 51.2534 32.9121C51.3201 32.8494 51.3801 32.9374 51.4414 32.9748C51.5001 33.0161 51.5561 33.0227 51.5747 32.8121L51.64 32.7054C51.5494 32.6788 51.6454 32.5241 51.6067 32.4561C51.6334 32.4307 51.6961 32.5774 51.6587 32.6014L51.6494 32.5814C51.6494 32.8001 51.7654 32.6507 51.7787 32.7921C51.9547 32.7454 52.1667 32.8281 52.3427 32.7574L52.2614 32.6094L52.3214 32.5961C52.3494 32.6255 52.3921 32.7081 52.3467 32.7188C52.4094 32.7974 52.3867 32.6174 52.3707 32.5841C52.48 32.6147 52.4214 32.7748 52.448 32.7694L52.4787 32.7427L52.4614 32.7295C52.4601 32.6548 52.4294 32.5894 52.4814 32.5761C52.5254 32.5894 52.5468 32.6587 52.5601 32.6587C52.5641 32.6694 52.5721 32.6721 52.5801 32.6521L52.6587 32.6241L52.5614 32.5254C52.5574 32.4521 52.6254 32.4948 52.5161 32.3828C52.6854 32.5574 52.8054 32.3121 52.8667 32.3414C52.8387 32.2374 52.8721 32.2108 52.9268 32.1828C52.8934 32.1721 52.7801 32.0694 52.8268 32.0548C53.0428 32.2788 52.9961 32.0961 53.1921 32.2067C53.0534 32.1387 53.2601 32.0707 53.0521 31.9841C53.0974 31.9694 53.1467 32.0548 53.2281 32.0748C53.2121 31.9974 53.2628 31.9694 53.3268 31.9361C53.3881 31.9054 53.4534 31.8641 53.468 31.7974C53.4307 31.7788 53.3627 31.7681 53.3187 31.7188C53.3187 31.7188 53.3747 31.7268 53.4307 31.7334C53.4894 31.7388 53.5454 31.7454 53.5454 31.7454C53.54 31.7134 53.3294 31.6334 53.4894 31.6481C53.4507 31.6401 53.3974 31.6281 53.3894 31.6108C53.5401 31.5361 53.532 31.3921 53.548 31.2734C53.5374 31.1441 53.5627 31.0361 53.7494 30.8801C53.6667 30.9241 53.6574 30.9001 53.6494 30.8748" fill="#F57850"/>
<path d="M52.2093 29.268L52.1587 29.292C52.1814 29.2894 52.1854 29.3147 52.192 29.3334C52.1974 29.3067 52.196 29.2693 52.2093 29.268" fill="#F57850"/>
<path d="M52.1733 29.64C52.1559 29.7347 52.184 29.7054 52.216 29.6907C52.2133 29.6921 52.2106 29.6921 52.2106 29.6907C52.2493 29.5627 52.2093 29.6014 52.1733 29.64Z" fill="#F57850"/>
<path d="M52.2227 29.688C52.2307 29.6853 52.24 29.6827 52.2467 29.688C52.2653 29.6373 52.24 29.6773 52.2227 29.688Z" fill="#F57850"/>
<path d="M51.9133 29.3706C51.9253 29.3946 51.9306 29.2493 51.9372 29.2893C51.9599 29.1693 51.8293 29.4373 51.9133 29.3706Z" fill="#F57850"/>
<path d="M51.9585 29.844L51.9932 29.8813C51.9945 29.86 51.9998 29.8494 52.0065 29.8414C51.9851 29.836 51.9612 29.8094 51.9585 29.844" fill="#F57850"/>
<path d="M52.0068 29.8414C52.0175 29.8454 52.0308 29.8441 52.0402 29.8254C52.0348 29.8267 52.0175 29.8281 52.0068 29.8414Z" fill="#F57850"/>
<path d="M51.5426 29.9267C51.548 29.8974 51.5613 29.8787 51.5493 29.8427L51.5146 29.8827C51.516 29.9227 51.5306 29.9454 51.5426 29.9267Z" fill="#F57850"/>
<path d="M53.7443 30.6694L53.7883 30.6134L53.7109 30.6614L53.7443 30.6694Z" fill="#F57850"/>
<path d="M53.5493 30.6387L53.7026 30.5854L53.556 30.604C53.5653 30.6106 53.5826 30.624 53.5493 30.6387" fill="#F57850"/>
<path d="M63.972 40.6066C62.444 41.9133 60.8453 42.776 59.1306 43.32C57.2853 43.9067 54.9173 43.872 53.5506 42.3467C53.3146 42.084 52.9187 42.592 53.1573 42.856C55.9627 45.992 61.0626 43.8494 64.2026 41.1627C64.5 40.908 64.2693 40.3506 63.972 40.6066Z" fill="#F57850"/>
<path d="M96.9506 22.4174C96.9559 20.8734 95.3706 19.4228 94.3026 18.5601C91.5439 16.3228 87.3279 15.2827 83.9986 14.3147C81.4493 13.5747 78.9466 12.768 76.5692 11.576C74.0706 10.3254 71.9119 8.54142 69.3573 7.39342C61.6053 3.90409 53.3626 3.18276 46.0226 7.76542C43.7772 9.16942 42.0292 11.88 41.3785 14.404C41.2812 14.7814 41.3866 15.0894 41.5879 15.3107C40.2653 18.8027 39.9146 22.6827 44.0626 22.0361C45.1613 21.8641 46.3265 20.8854 47.1039 20.1947C47.6399 19.7161 49.3119 18.9321 49.2306 18.1907C49.2652 18.4894 49.3346 18.6827 49.5306 18.9147C50.0066 19.4694 50.7052 19.9254 51.4919 19.7027C52.7439 19.3467 53.5039 20.2334 54.7759 19.9854C57.1185 19.5267 56.1319 25.4281 59.1452 25.4281C59.9079 25.4281 60.4332 24.9747 60.9172 24.4454C62.0012 23.2574 64.7146 27.5787 65.4959 28.5134C66.6933 29.9481 67.2679 31.6734 68.6345 32.948C69.9919 34.212 71.7053 34.7267 73.0293 36.1854C76.0706 39.5281 80.0426 41.6387 84.3666 42.8441C87.0306 43.5867 90.7359 44.2774 92.8719 42.1427C93.8372 41.176 94.3666 40.1307 94.5519 38.7814C94.7506 37.316 92.9426 33.7174 94.1666 32.7334C96.1572 31.1347 97.1372 29.0214 95.4999 26.8601C95.2226 26.4948 96.9466 23.388 96.9506 22.4174" fill="#8E192E"/>
<path d="M94.6677 20.2921C91.6411 19.4668 88.7664 18.6068 85.8691 17.3881C82.8598 16.1228 78.8384 15.8868 76.2998 13.7081C75.9691 13.4228 75.4837 13.9054 75.8171 14.1921C77.9757 16.0428 81.3584 16.6655 84.0158 17.4361C85.7318 17.9335 87.2904 18.8521 88.9811 19.4254C90.7811 20.0374 92.6517 20.4495 94.4864 20.9495C94.9117 21.0668 95.0917 20.4068 94.6677 20.2921" fill="#9D1B2E"/>
<path d="M92.5989 25.9267C89.4949 24.9014 86.5348 23.5494 83.6362 22.0467C80.8935 20.6267 78.3535 18.8387 75.6575 17.336C75.2722 17.12 74.9295 17.7107 75.3135 17.9253C78.1895 19.528 80.9082 21.4013 83.8335 22.9173C86.6015 24.3507 89.4548 25.6067 92.4162 26.5854C92.8348 26.7254 93.0149 26.0654 92.5989 25.9267" fill="#9D1B2E"/>
<path d="M94.3242 30.8734C90.7255 29.3934 87.1615 27.8494 83.7588 25.9587C80.4695 24.1307 76.8242 21.9614 74.1135 19.3441C73.7989 19.0387 73.3175 19.5201 73.6335 19.8267C76.4162 22.5174 80.0669 24.6387 83.4135 26.5494C86.8415 28.5027 90.4975 30.0334 94.1428 31.5321C94.5495 31.6988 94.7242 31.0387 94.3242 30.8734" fill="#9D1B2E"/>
<path d="M90.0333 33.208C83.1826 30.0387 75.1333 26.5666 70.4893 20.3333C70.2293 19.9853 69.6346 20.324 69.8986 20.6773C74.6293 27.028 82.7119 30.5693 89.6893 33.7973C90.0866 33.9813 90.4319 33.3933 90.0333 33.208" fill="#9D1B2E"/>
<path d="M88.3426 36.8547C80.428 34.0947 74.028 28.944 68.48 22.7946C68.184 22.4666 67.7026 22.952 67.9973 23.2786C73.6333 29.5266 80.1213 34.7093 88.1613 37.512C88.5773 37.6586 88.7533 36.9987 88.3426 36.8547" fill="#9D1B2E"/>
<path d="M89.836 40.996C85.52 39.808 81.52 37.9013 77.728 35.5333C74.0173 33.2133 69.5746 30.38 67.2679 26.544C67.0413 26.1667 66.4493 26.5107 66.6773 26.8907C68.964 30.692 73.256 33.4373 76.892 35.808C80.836 38.38 85.112 40.404 89.656 41.6533C90.0813 41.7706 90.2613 41.112 89.836 40.996" fill="#9D1B2E"/>
<path d="M40.7242 12.36C40.9775 8.70271 43.9508 5.43738 46.8895 3.56005C50.4041 1.31738 54.9441 -0.366626 59.0175 0.18804C72.7441 2.06137 73.3228 11.2774 73.6442 13.352C73.8868 14.888 73.4841 16.14 72.6201 17.396C72.2588 17.924 71.2415 18.992 70.4481 18.9427C69.6788 19.2573 68.8335 19.312 67.9188 19.316C65.7308 19.3267 63.4335 18.6694 61.2735 18.3267C58.7148 17.9214 56.1868 17.6853 53.6082 17.5067C51.2522 17.344 48.8922 17.4934 46.5468 17.2267C44.9575 17.048 43.5388 17.0373 42.1735 16.1227C40.8188 15.212 40.6188 13.868 40.7242 12.36" fill="#F37116"/>
<path d="M59.2628 17.9334C59.5042 19.7641 61.9255 29.6707 62.8722 32.6974C62.9202 32.7881 63.1202 32.5347 63.1668 32.3161C63.9575 28.5387 64.9148 19.6548 64.9162 19.5214C64.9255 18.7881 66.0548 18.8774 66.0442 19.612C65.9642 25.484 64.6108 31.4894 63.0295 36.7294C62.3055 39.1334 61.3628 41.4054 60.4362 43.6027C60.0388 44.5441 59.5921 44.9787 58.9535 44.4454C57.7801 43.464 61.7255 36.8814 62.0855 35.6281C61.7082 34.6547 57.2335 16.6668 57.5802 17.4548C57.5802 17.4548 59.1828 17.3281 59.2628 17.9334Z" fill="#F37116"/>
<path d="M43.4119 10.1534C44.5159 8.33603 46.7266 7.08539 48.5372 6.08006C50.6959 4.88006 53.1853 4.1787 55.6266 3.95603C62.1199 3.36537 68.0973 5.24674 69.2079 6.82674C69.4626 7.18807 68.5826 7.12935 68.5666 7.10668C68.5613 7.10402 65.4052 6.44802 63.7919 6.34269C62.1786 6.23602 60.5799 6.21872 58.9679 6.38006C55.7946 6.69339 53.0306 8.41739 50.2079 9.74939C49.0293 10.3067 48.0226 11.0774 46.9493 11.7974C46.1186 12.3547 45.4306 13.1627 44.3693 13.1454C42.9626 13.1227 42.8986 10.9947 43.4119 10.1534" fill="#C04621"/>
<path d="M50.0202 11.5293C52.2069 10.4147 54.5482 9.52663 56.9589 9.10663C68.8562 7.04529 71.0589 10.8693 70.7269 10.7293C68.4656 9.78668 58.1536 12.492 55.4883 13.3453C54.5389 13.6506 45.9629 17.0387 46.2042 14.408C46.3282 13.04 49.0682 12.0133 50.0202 11.5293Z" fill="#C04621"/>
<path d="M62.1424 13.2667C63.3504 13.0027 64.6278 12.864 65.8625 12.8627C70.0825 12.86 70.8851 14.4507 70.7398 14.5467C70.0864 14.9733 60.8492 17.1586 60.0292 15.476C59.3865 14.152 61.2118 13.472 62.1424 13.2667" fill="#C04621"/>
<path d="M65.7839 3.7453C63.3773 2.0613 60.4893 1.51198 57.6253 1.33065C56.4346 1.29732 48.0306 2.24662 48.8186 4.13462C49.228 5.11995 50.6666 4.04264 51.1746 3.78931C52.944 2.81197 55.14 2.372 57.124 2.18C58.9893 2 60.8813 2.2253 62.6839 2.71196C63.5426 2.94263 64.3906 3.27334 65.1826 3.68534C65.1693 3.67734 66.1626 4.02663 65.7839 3.7453Z" fill="#F9AA57"/>
<path d="M64.1412 22.3454C63.3052 21.784 61.5279 22.7161 61.1932 23.6747C61.0479 23.9214 60.9999 24.2161 60.9972 24.5654C60.9945 24.6747 61.0359 24.7574 61.0932 24.8214C61.1666 25.6201 61.5572 26.4667 61.8852 27.0694C62.2185 27.6827 62.7198 28.2 63.4092 28.3974C63.9945 28.5627 64.7185 28.0187 64.7745 27.4601C64.9225 25.9547 65.7305 23.4147 64.1412 22.3454" fill="#F89E67"/>
<path d="M63.8826 23.7973C63.7079 23.5707 63.3705 23.424 63.0839 23.5107C62.7545 23.612 62.5986 23.888 62.4852 24.1934C62.2612 24.792 62.2679 25.5654 62.5479 26.144C62.7879 26.64 63.3052 26.7134 63.6439 26.2694C63.7119 26.1827 63.7639 26.0814 63.8132 25.98C63.8852 25.9427 63.9426 25.876 63.9666 25.7733C64.1079 25.1907 64.2812 24.3147 63.8826 23.7973" fill="#F57850"/>
<path d="M100.621 82.4587C100.241 79.6734 99.8732 76.9307 99.7732 74.1214C99.7252 72.7761 99.6012 71.1987 98.5092 70.2947C97.1306 69.156 88.8012 69.8107 88.0066 74.3214C87.4199 77.6561 88.196 80.5667 88.3573 83.8707C88.6173 89.2493 88.4533 94.704 88.3919 100.088C88.3613 102.86 88.3239 105.889 87.7812 108.612C87.5599 109.731 87.1733 110.944 87.3306 112.1C87.6453 114.421 89.8959 115.933 92.2586 115.288C92.3759 115.336 92.4933 115.384 92.624 115.423C93.648 115.716 94.3332 114.799 94.7786 113.776C96.0106 112.529 96.7959 110.789 97.4812 109.133C99.3252 104.661 100.456 100.148 101.163 95.3667C101.792 91.1107 101.203 86.6854 100.621 82.4587Z" fill="#F89E67"/>
<path d="M96.2508 82.384C94.8521 82.7267 90.9575 83.4054 92.3441 85.664C92.5721 86.0374 93.1641 85.6947 92.9335 85.3187C91.9815 83.7681 95.5015 83.2707 96.4335 83.0427C96.8601 82.9387 96.6788 82.2787 96.2508 82.384" fill="#F57850"/>
<path d="M44.464 110.397C43.1893 102.751 43.9666 94.6974 44.4853 87.0054C44.7173 83.5667 44.9866 77.5894 41.4559 75.4947C37.6893 73.26 28.2306 69.804 31.0839 84.9947C31.2253 89.248 31.5987 93.528 32.6293 97.6227C32.9573 100.08 33.308 102.533 33.6213 104.996C34.0613 108.443 35.3093 114.137 38.136 117.139C38.3866 117.817 38.7986 118.34 39.5173 118.443C39.6373 118.459 39.7399 118.461 39.8559 118.473C39.9746 118.537 40.088 118.613 40.2106 118.668C40.5186 118.805 40.8066 118.713 41.0039 118.529C45.2559 118.44 45.1733 114.649 44.464 110.397" fill="#F89E67"/>
<path d="M104.979 110.615C103.927 109.996 101.982 110.269 100.858 110.491C98.3175 110.989 95.7348 111.333 93.2135 111.909C91.2255 112.363 89.3628 113.348 87.5375 114.217C85.4895 115.193 83.4442 116.047 81.4628 117.16C79.4415 118.293 77.4575 119.481 75.3602 120.469C72.7522 121.696 70.0775 122.193 67.2055 122.219C61.9362 122.264 42.5375 119.861 37.8722 119.184C35.6788 118.867 34.3788 117.337 33.0002 115.779C32.1962 114.869 30.8375 113.807 29.5362 114.083C26.4388 114.733 28.3108 117.975 29.4135 119.673C33.4002 125.815 62.8949 130.595 75.9655 125.379C80.1202 123.721 95.6908 116.408 102.217 116.716C104.273 116.812 107.905 112.344 104.979 110.615" fill="#0D4C54"/>
<path d="M47.8588 116.209C46.6442 114.269 44.4575 110.908 41.8922 110.581C40.1428 110.359 37.9629 111.212 37.7469 113.236C37.4909 115.631 38.2188 117.548 39.2588 119.419C40.2455 122.223 41.3562 125.335 43.4508 126.805C43.8322 127.069 44.3135 126.859 44.4775 126.463C44.9508 125.329 44.8775 124.053 44.5948 122.764C45.2375 123.872 45.9468 124.901 46.9401 125.587C47.2788 125.82 47.8602 125.675 47.9655 125.245C48.1762 124.401 48.1495 123.613 48.0028 122.848C48.4695 123.693 49.0455 124.448 50.1228 124.804C50.5455 124.944 50.9882 124.655 51.0269 124.211C51.2735 121.483 49.2428 118.419 47.8588 116.209" fill="#F89E67"/>
<path d="M95.4295 112.769C93.7589 110.005 92.8722 107.477 89.5002 106.48C87.8548 105.992 85.7095 106.309 84.6948 107.752C83.7735 109.063 84.4535 111.249 85.0175 112.799C85.4148 114.108 85.9908 115.4 86.3415 116.431C86.9722 118.283 87.8175 120.461 89.3908 121.696C89.7855 122.007 90.3762 121.932 90.5335 121.395C90.7788 120.545 90.8082 119.603 90.7188 118.639C91.5082 119.525 92.4348 120.272 93.4468 120.759C93.8228 120.939 94.3548 120.811 94.4508 120.351C94.6321 119.489 94.5308 118.609 94.2882 117.737C95.1322 118.397 96.0722 118.96 97.1082 119.452C97.5228 119.651 98.1922 119.425 98.1335 118.863C97.9042 116.621 96.5655 114.655 95.4295 112.769" fill="#F89E67"/>
<path d="M64.4279 189.757C63.3226 186.635 62.8466 183.631 62.488 180.34C61.7653 173.776 60.9506 167.193 60.5559 160.6C60.1506 153.852 60.3013 147.059 60.9613 140.333C61.3146 136.751 61.9839 133.205 62.5746 129.656C62.8373 128.088 63.4599 126.189 62.6893 124.691C62.5346 124.384 62.1466 124.169 61.8053 124.183C61.7279 124.185 61.6639 124.197 61.5919 124.205C61.1666 123.753 60.3519 123.641 59.9479 124.336C58.5666 126.705 58.0946 129.295 57.7066 131.981C57.3026 134.773 56.5346 137.508 56.4106 140.333C56.0613 148.235 56.0546 156.097 56.6653 163.989C57.256 171.624 58.5959 179.272 60.3386 186.723C60.9573 189.369 61.5026 196.297 64.7133 197.199C65.324 197.371 66.0546 196.881 66.0092 196.212C65.8626 193.949 65.1799 191.887 64.4279 189.757" fill="#0D4C54"/>
<path d="M67.1397 189.779C68.1944 186.639 68.625 183.628 68.9344 180.333C69.5544 173.757 70.2678 167.164 70.5598 160.564C70.8584 153.812 70.6038 147.02 69.8384 140.305C69.4331 136.729 68.7078 133.195 68.0598 129.656C67.7758 128.092 67.1211 126.201 67.8691 124.692C68.0211 124.383 68.4011 124.163 68.7451 124.171C68.8224 124.172 68.8891 124.184 68.9611 124.191C69.3797 123.732 70.1891 123.607 70.6064 124.295C72.0224 126.643 72.5344 129.224 72.9651 131.904C73.4131 134.691 74.2224 137.412 74.3891 140.236C74.8624 148.131 74.9917 155.992 74.501 163.892C74.029 171.536 72.8064 179.204 71.1798 186.679C70.6038 189.335 70.1664 196.272 66.9691 197.223C66.3611 197.405 65.6237 196.927 65.6584 196.256C65.7704 193.991 66.4184 191.917 67.1397 189.779" fill="#0D4C54"/>
<path d="M77.4559 155.073C75.4305 146.825 69.8452 143.805 64.9639 143.157V150.749C64.9692 150.751 64.9732 150.753 64.9785 150.756C71.4678 153.86 74.3986 164.705 75.7519 172.583C83.9346 220.273 70.3292 237.744 67.7319 239.047C66.7439 239.543 65.8239 239.728 64.9639 239.672V248.011C65.1825 247.993 65.4025 247.971 65.6279 247.929C73.1892 246.568 94.5785 224.765 77.4559 155.073Z" fill="#0D4C54"/>
</svg>
