<svg width="304" height="304" viewBox="0 0 304 304" fill="none" xmlns="http://www.w3.org/2000/svg">
<rect x="32" y="112" width="16" height="16" fill="black"/>
<rect x="32" y="96" width="16" height="16" fill="black"/>
<rect x="48" y="80" width="16" height="16" fill="black"/>
<rect x="48" y="64" width="16" height="16" fill="black"/>
<rect x="64" y="48" width="16" height="16" fill="black"/>
<rect x="64" y="32" width="16" height="16" fill="black"/>
<rect x="80" y="16" width="16" height="16" fill="black"/>
<rect x="96" y="16" width="16" height="16" fill="black"/>
<rect x="112" y="16" width="16" height="16" fill="black"/>
<rect x="128" width="16" height="16" fill="black"/>
<rect x="144" width="16" height="16" fill="black"/>
<rect x="160" width="16" height="16" fill="black"/>
<rect x="144" y="16" width="16" height="16" fill="black"/>
<rect x="128" y="32" width="16" height="16" fill="black"/>
<rect x="144" y="32" width="16" height="16" fill="black"/>
<rect x="144" y="48" width="16" height="16" fill="black"/>
<rect x="160" y="32" width="16" height="16" fill="black"/>
<rect x="176" y="32" width="16" height="16" fill="black"/>
<rect x="192" y="16" width="16" height="16" fill="black"/>
<rect x="208" y="16" width="16" height="16" fill="black"/>
<rect x="224" width="16" height="16" fill="black"/>
<rect x="240" width="16" height="16" fill="black"/>
<rect x="256" width="16" height="16" fill="black"/>
<rect x="240" y="16" width="16" height="16" fill="black"/>
<rect x="240" y="32" width="16" height="16" fill="black"/>
<rect x="256" y="32" width="16" height="16" fill="black"/>
<rect x="272" y="32" width="16" height="16" fill="black"/>
<rect x="288" y="48" width="16" height="16" fill="black"/>
<rect x="288" y="64" width="16" height="16" fill="black"/>
<rect x="272" y="80" width="16" height="16" fill="black"/>
<rect x="288" y="96" width="16" height="16" fill="black"/>
<rect x="288" y="112" width="16" height="16" fill="black"/>
<rect x="272" y="128" width="16" height="16" fill="black"/>
<rect x="256" y="128" width="16" height="16" fill="black"/>
<rect x="240" y="128" width="16" height="16" fill="black"/>
<rect x="224" y="128" width="16" height="16" fill="black"/>
<rect x="208" y="112" width="16" height="16" fill="black"/>
<rect x="192" y="112" width="16" height="16" fill="#884F1F"/>
<rect x="192" y="128" width="16" height="16" fill="#884F1F"/>
<rect x="208" y="144" width="16" height="16" fill="black"/>
<rect x="192" y="160" width="16" height="16" fill="black"/>
<rect x="176" y="160" width="16" height="16" fill="black"/>
<rect x="160" y="160" width="16" height="16" fill="black"/>
<rect x="144" y="144" width="16" height="16" fill="black"/>
<rect x="128" y="128" width="16" height="16" fill="black"/>
<rect x="112" y="128" width="16" height="16" fill="black"/>
<rect x="112" y="160" width="16" height="16" fill="black"/>
<rect x="96" y="160" width="16" height="16" fill="black"/>
<rect x="80" y="144" width="16" height="16" fill="black"/>
<rect x="64" y="128" width="16" height="16" fill="black"/>
<rect x="48" y="112" width="16" height="16" fill="black"/>
<rect x="96" y="112" width="16" height="16" fill="black"/>
<rect x="256" y="144" width="16" height="16" fill="black"/>
<rect x="256" y="160" width="16" height="16" fill="black"/>
<rect x="256" y="176" width="16" height="16" fill="black"/>
<rect x="256" y="192" width="16" height="16" fill="black"/>
<rect x="256" y="208" width="16" height="16" fill="black"/>
<rect x="224" y="48" width="16" height="16" fill="black"/>
<rect x="32" y="128" width="16" height="16" fill="black"/>
<rect x="32" y="144" width="16" height="16" fill="black"/>
<rect x="32" y="160" width="16" height="16" fill="black"/>
<rect x="32" y="176" width="16" height="16" fill="black"/>
<rect x="32" y="192" width="16" height="16" fill="black"/>
<rect x="32" y="208" width="16" height="16" fill="black"/>
<rect x="128" y="64" width="16" height="16" fill="#884F1F"/>
<rect x="112" y="80" width="16" height="16" fill="#884F1F"/>
<rect x="96" y="80" width="16" height="16" fill="#884F1F"/>
<rect x="80" y="80" width="16" height="16" fill="#884F1F"/>
<rect x="80" y="64" width="16" height="16" fill="#884F1F"/>
<rect x="64" y="64" width="16" height="16" fill="#884F1F"/>
<rect x="64" y="80" width="16" height="16" fill="#884F1F"/>
<rect x="64" y="96" width="16" height="16" fill="#884F1F"/>
<rect x="64" y="112" width="16" height="16" fill="#884F1F"/>
<rect x="80" y="112" width="16" height="16" fill="#884F1F"/>
<rect x="80" y="128" width="16" height="16" fill="#884F1F"/>
<rect x="96" y="128" width="16" height="16" fill="#884F1F"/>
<rect x="96" y="144" width="16" height="16" fill="#884F1F"/>
<rect x="48" y="96" width="16" height="16" fill="#884F1F"/>
<rect x="80" y="96" width="16" height="16" fill="#884F1F"/>
<rect x="96" y="96" width="16" height="16" fill="#884F1F"/>
<rect x="112" y="96" width="16" height="16" fill="#884F1F"/>
<rect x="112" y="112" width="16" height="16" fill="#884F1F"/>
<rect x="128" y="112" width="16" height="16" fill="#884F1F"/>
<rect x="128" y="96" width="16" height="16" fill="#884F1F"/>
<rect x="128" y="80" width="16" height="16" fill="#884F1F"/>
<rect x="160" y="96" width="16" height="16" fill="#884F1F"/>
<rect x="144" y="96" width="16" height="16" fill="#884F1F"/>
<rect x="144" y="112" width="16" height="16" fill="#884F1F"/>
<rect x="144" y="128" width="16" height="16" fill="#884F1F"/>
<rect x="160" y="128" width="16" height="16" fill="#884F1F"/>
<rect x="176" y="128" width="16" height="16" fill="#884F1F"/>
<rect x="176" y="112" width="16" height="16" fill="#884F1F"/>
<rect x="160" y="112" width="16" height="16" fill="#884F1F"/>
<rect x="160" y="144" width="16" height="16" fill="#884F1F"/>
<rect x="176" y="144" width="16" height="16" fill="#884F1F"/>
<rect x="192" y="144" width="16" height="16" fill="#884F1F"/>
<rect x="144" y="80" width="16" height="16" fill="#884F1F"/>
<rect x="144" y="64" width="16" height="16" fill="#884F1F"/>
<rect x="176" y="96" width="16" height="16" fill="#884F1F"/>
<rect x="192" y="96" width="16" height="16" fill="#884F1F"/>
<rect x="192" y="80" width="16" height="16" fill="#884F1F"/>
<rect x="208" y="80" width="16" height="16" fill="#884F1F"/>
<rect x="208" y="96" width="16" height="16" fill="#884F1F"/>
<rect x="224" y="80" width="16" height="16" fill="#884F1F"/>
<rect x="240" y="80" width="16" height="16" fill="#884F1F"/>
<rect x="240" y="64" width="16" height="16" fill="#884F1F"/>
<rect x="240" y="48" width="16" height="16" fill="#884F1F"/>
<rect x="256" y="48" width="16" height="16" fill="#884F1F"/>
<rect x="272" y="48" width="16" height="16" fill="#884F1F"/>
<rect x="272" y="64" width="16" height="16" fill="#884F1F"/>
<rect x="256" y="64" width="16" height="16" fill="#884F1F"/>
<rect x="256" y="80" width="16" height="16" fill="#884F1F"/>
<rect x="256" y="96" width="16" height="16" fill="#884F1F"/>
<rect x="272" y="96" width="16" height="16" fill="#884F1F"/>
<rect x="272" y="112" width="16" height="16" fill="#884F1F"/>
<rect x="256" y="112" width="16" height="16" fill="#884F1F"/>
<rect x="240" y="112" width="16" height="16" fill="#884F1F"/>
<rect x="240" y="96" width="16" height="16" fill="#884F1F"/>
<rect x="224" y="96" width="16" height="16" fill="#884F1F"/>
<rect x="224" y="112" width="16" height="16" fill="#884F1F"/>
<rect x="208" y="128" width="16" height="16" fill="#884F1F"/>
<rect x="224" y="64" width="16" height="16" fill="#884F1F"/>
<rect x="128" y="16" width="16" height="16" fill="#884F1F"/>
<rect x="112" y="32" width="16" height="16" fill="#884F1F"/>
<rect x="96" y="32" width="16" height="16" fill="#884F1F"/>
<rect x="80" y="32" width="16" height="16" fill="#884F1F"/>
<rect x="80" y="48" width="16" height="16" fill="#884F1F"/>
<rect x="96" y="48" width="16" height="16" fill="#884F1F"/>
<rect x="96" y="64" width="16" height="16" fill="#884F1F"/>
<rect x="112" y="64" width="16" height="16" fill="#884F1F"/>
<rect x="112" y="48" width="16" height="16" fill="#884F1F"/>
<rect x="128" y="48" width="16" height="16" fill="#884F1F"/>
<rect x="160" y="48" width="16" height="16" fill="#884F1F"/>
<rect x="160" y="64" width="16" height="16" fill="#884F1F"/>
<rect x="160" y="80" width="16" height="16" fill="#884F1F"/>
<rect x="176" y="80" width="16" height="16" fill="#884F1F"/>
<rect x="176" y="64" width="16" height="16" fill="#884F1F"/>
<rect x="192" y="64" width="16" height="16" fill="#884F1F"/>
<rect x="208" y="64" width="16" height="16" fill="#884F1F"/>
<rect x="176" y="48" width="16" height="16" fill="#884F1F"/>
<rect x="192" y="48" width="16" height="16" fill="#884F1F"/>
<rect x="192" y="32" width="16" height="16" fill="#884F1F"/>
<rect x="208" y="32" width="16" height="16" fill="#884F1F"/>
<rect x="208" y="48" width="16" height="16" fill="#884F1F"/>
<rect x="224" y="32" width="16" height="16" fill="#884F1F"/>
<rect x="224" y="16" width="16" height="16" fill="#884F1F"/>
<rect x="128" y="64" width="16" height="16" fill="#884F1F"/>
<rect x="112" y="80" width="16" height="16" fill="#884F1F"/>
<rect x="96" y="80" width="16" height="16" fill="#884F1F"/>
<rect x="80" y="80" width="16" height="16" fill="#884F1F"/>
<rect x="80" y="64" width="16" height="16" fill="#884F1F"/>
<rect x="64" y="64" width="16" height="16" fill="#9F6C42"/>
<rect x="64" y="80" width="16" height="16" fill="#9F6C42"/>
<rect x="64" y="96" width="16" height="16" fill="#884F1F"/>
<rect x="64" y="112" width="16" height="16" fill="#884F1F"/>
<rect x="80" y="112" width="16" height="16" fill="#884F1F"/>
<rect x="80" y="128" width="16" height="16" fill="#884F1F"/>
<rect x="96" y="128" width="16" height="16" fill="#884F1F"/>
<rect x="96" y="144" width="16" height="16" fill="#884F1F"/>
<rect x="48" y="96" width="16" height="16" fill="#884F1F"/>
<rect x="80" y="96" width="16" height="16" fill="#884F1F"/>
<rect x="96" y="96" width="16" height="16" fill="#884F1F"/>
<rect x="112" y="96" width="16" height="16" fill="#884F1F"/>
<rect x="112" y="112" width="16" height="16" fill="#884F1F"/>
<rect x="128" y="112" width="16" height="16" fill="#884F1F"/>
<rect x="128" y="96" width="16" height="16" fill="#884F1F"/>
<rect x="128" y="80" width="16" height="16" fill="#884F1F"/>
<rect x="160" y="96" width="16" height="16" fill="#884F1F"/>
<rect x="144" y="96" width="16" height="16" fill="#884F1F"/>
<rect x="144" y="112" width="16" height="16" fill="#884F1F"/>
<rect x="144" y="128" width="16" height="16" fill="#884F1F"/>
<rect x="160" y="128" width="16" height="16" fill="#884F1F"/>
<rect x="176" y="128" width="16" height="16" fill="#884F1F"/>
<rect x="176" y="112" width="16" height="16" fill="#884F1F"/>
<rect x="160" y="112" width="16" height="16" fill="#884F1F"/>
<rect x="160" y="144" width="16" height="16" fill="#884F1F"/>
<rect x="176" y="144" width="16" height="16" fill="#884F1F"/>
<rect x="192" y="144" width="16" height="16" fill="#884F1F"/>
<rect x="144" y="80" width="16" height="16" fill="#884F1F"/>
<rect x="144" y="64" width="16" height="16" fill="#884F1F"/>
<rect x="176" y="96" width="16" height="16" fill="#884F1F"/>
<rect x="192" y="96" width="16" height="16" fill="#884F1F"/>
<rect x="192" y="80" width="16" height="16" fill="#884F1F"/>
<rect x="208" y="80" width="16" height="16" fill="#884F1F"/>
<rect x="208" y="96" width="16" height="16" fill="#884F1F"/>
<rect x="224" y="80" width="16" height="16" fill="#884F1F"/>
<rect x="240" y="80" width="16" height="16" fill="#884F1F"/>
<rect x="240" y="64" width="16" height="16" fill="#884F1F"/>
<rect x="240" y="48" width="16" height="16" fill="#884F1F"/>
<rect x="256" y="48" width="16" height="16" fill="#884F1F"/>
<rect x="272" y="48" width="16" height="16" fill="#884F1F"/>
<rect x="272" y="64" width="16" height="16" fill="#884F1F"/>
<rect x="256" y="64" width="16" height="16" fill="#884F1F"/>
<rect x="256" y="80" width="16" height="16" fill="#884F1F"/>
<rect x="256" y="96" width="16" height="16" fill="#884F1F"/>
<rect x="272" y="96" width="16" height="16" fill="#884F1F"/>
<rect x="272" y="112" width="16" height="16" fill="#884F1F"/>
<rect x="256" y="112" width="16" height="16" fill="#884F1F"/>
<rect x="240" y="112" width="16" height="16" fill="#884F1F"/>
<rect x="240" y="96" width="16" height="16" fill="#884F1F"/>
<rect x="224" y="96" width="16" height="16" fill="#884F1F"/>
<rect x="224" y="112" width="16" height="16" fill="#884F1F"/>
<rect x="208" y="128" width="16" height="16" fill="#884F1F"/>
<rect x="224" y="64" width="16" height="16" fill="#884F1F"/>
<rect x="128" y="16" width="16" height="16" fill="#884F1F"/>
<rect x="112" y="32" width="16" height="16" fill="#9F6C42"/>
<rect x="80" y="32" width="16" height="16" fill="#9F6C42"/>
<rect x="80" y="48" width="16" height="16" fill="#9F6C42"/>
<rect x="96" y="48" width="16" height="16" fill="#884F1F"/>
<rect x="96" y="64" width="16" height="16" fill="#884F1F"/>
<rect x="112" y="64" width="16" height="16" fill="#884F1F"/>
<rect x="112" y="48" width="16" height="16" fill="#884F1F"/>
<rect x="128" y="32" width="16" height="16" fill="#9F6C42"/>
<rect x="128" y="16" width="16" height="16" fill="#9F6C42"/>
<rect x="160" y="48" width="16" height="16" fill="#884F1F"/>
<rect x="160" y="64" width="16" height="16" fill="#884F1F"/>
<rect x="160" y="80" width="16" height="16" fill="#884F1F"/>
<rect x="176" y="80" width="16" height="16" fill="#BD7F47"/>
<rect x="176" y="64" width="16" height="16" fill="#884F1F"/>
<rect x="192" y="64" width="16" height="16" fill="#884F1F"/>
<rect x="208" y="64" width="16" height="16" fill="#884F1F"/>
<rect x="176" y="48" width="16" height="16" fill="#884F1F"/>
<rect x="192" y="48" width="16" height="16" fill="#884F1F"/>
<rect x="208" y="48" width="16" height="16" fill="#884F1F"/>
<rect x="224" y="32" width="16" height="16" fill="#9F6C42"/>
<rect x="224" y="16" width="16" height="16" fill="#9F6C42"/>
<rect x="96" y="176" width="16" height="16" fill="#FBE4CD"/>
<rect x="96" y="192" width="16" height="16" fill="#FBE4CD"/>
<rect x="80" y="224" width="16" height="16" fill="#FBE4CD"/>
<rect x="128" y="224" width="16" height="16" fill="#FBE4CD"/>
<rect x="144" y="240" width="16" height="16" fill="#FBE4CD"/>
<rect x="160" y="240" width="16" height="16" fill="#FBE4CD"/>
<rect x="160" y="192" width="16" height="16" fill="#FBE4CD"/>
<rect x="176" y="240" width="16" height="16" fill="#FBE4CD"/>
<rect x="192" y="224" width="16" height="16" fill="#FBE4CD"/>
<rect x="240" y="240" width="16" height="16" fill="#FBE4CD"/>
<rect x="256" y="224" width="16" height="16" fill="#FBE4CD"/>
<rect x="272" y="208" width="16" height="16" fill="#FBE4CD"/>
<rect x="272" y="192" width="16" height="16" fill="#FBE4CD"/>
<rect x="272" y="176" width="16" height="16" fill="#FBE4CD"/>
<rect x="272" y="160" width="16" height="16" fill="#FBE4CD"/>
<rect x="272" y="144" width="16" height="16" fill="#ECBDA3"/>
<rect x="288" y="160" width="16" height="16" fill="#FBE4CD"/>
<rect x="288" y="176" width="16" height="16" fill="#FBE4CD"/>
<rect x="16" y="128" width="16" height="16" fill="#ECBDA3"/>
<path fill-rule="evenodd" clip-rule="evenodd" d="M16 144H32V160V176V192V208H16V192V176H0V160V144H16Z" fill="#FBE4CD"/>
<rect x="48" y="256" width="16" height="16" fill="#D1A38E"/>
<rect x="48" y="240" width="16" height="16" fill="#D1A38E"/>
<rect x="64" y="272" width="16" height="16" fill="#D1A38E"/>
<rect x="80" y="272" width="16" height="16" fill="#D1A38E"/>
<rect x="96" y="272" width="16" height="16" fill="#D1A38E"/>
<rect x="176" y="288" width="16" height="16" fill="#D1A38E"/>
<rect x="192" y="288" width="16" height="16" fill="#D1A38E"/>
<rect x="112" y="288" width="16" height="16" fill="#D1A38E"/>
<rect x="112" y="272" width="16" height="16" fill="#D1A38E"/>
<rect x="128" y="288" width="16" height="16" fill="#D1A38E"/>
<rect x="144" y="288" width="16" height="16" fill="#D1A38E"/>
<rect x="160" y="288" width="16" height="16" fill="#D1A38E"/>
<rect x="208" y="272" width="16" height="16" fill="#D1A38E"/>
<rect x="224" y="272" width="16" height="16" fill="#D1A38E"/>
<rect x="240" y="256" width="16" height="16" fill="#D1A38E"/>
<path fill-rule="evenodd" clip-rule="evenodd" d="M272 224H256V240V256H272V240V224ZM64 256H80H96V272H80H64V256ZM192 272H176H160H144H128H112V288H128H144H160H176H192H208V272H192ZM240 256H224V272H240V256Z" fill="#ECBDA3"/>
<path fill-rule="evenodd" clip-rule="evenodd" d="M48 128H64V144H80V160H96V176V192V208H112H128V192V176V160H112V144H128H144V160H160V176H176H192V192V208H208H224V192V176V160V144H240H256V160V176V192V208V224V240H240V256H224V272H208H192H176H160H144H128H112H96V256H80H64V240H48V224V208V192V176V160V144V128ZM96 224H80V240H96V224ZM176 256H160H144V240H128V224H144H160H176H192H208V240H192V256H176ZM160 208H176V192H160V208Z" fill="#FBE4CD"/>
<rect x="152" y="224" width="16" height="16" fill="white"/>
<rect x="136" y="224" width="16" height="16" fill="#542E2E"/>
<rect x="120" y="224" width="16" height="16" fill="#542E2E"/>
<rect x="136" y="240" width="16" height="16" fill="#542E2E"/>
<rect x="152" y="240" width="16" height="16" fill="#542E2E"/>
<rect x="168" y="240" width="16" height="16" fill="#542E2E"/>
<rect x="168" y="224" width="16" height="16" fill="white"/>
<rect x="184" y="224" width="16" height="16" fill="#542E2E"/>
<rect x="200" y="224" width="16" height="16" fill="#542E2E"/>
<rect x="184" y="240" width="16" height="16" fill="#542E2E"/>
<rect x="152" y="192" width="16" height="16" fill="#ECBDA3"/>
<rect x="168" y="192" width="16" height="16" fill="#ECBDA3"/>
<rect x="96" y="176" width="16" height="16" fill="black"/>
<rect x="112" y="176" width="16" height="16" fill="black"/>
<rect x="112" y="192" width="16" height="16" fill="black"/>
<rect x="96" y="192" width="16" height="16" fill="black"/>
<rect x="96" y="176" width="16" height="16" fill="white"/>
<rect x="192" y="176" width="16" height="16" fill="black"/>
<rect x="208" y="176" width="16" height="16" fill="black"/>
<rect x="208" y="160" width="16" height="16" fill="black"/>
<rect x="208" y="192" width="16" height="16" fill="black"/>
<rect x="192" y="192" width="16" height="16" fill="black"/>
<rect x="192" y="176" width="16" height="16" fill="white"/>
</svg>
