<svg width="280" height="247" viewBox="0 0 280 247" fill="none" xmlns="http://www.w3.org/2000/svg">
<rect x="7.5" y="106.5" width="265" height="133" stroke="#110B0D" stroke-width="15"/>
<path d="M79.5324 1.35994H55.0924L44.3804 36.4079L40.4284 50.8639H40.2204L36.3724 36.3039L25.5564 1.35994H0.076416V69.9999H15.9884V38.4879L15.4684 17.3759H15.6764L32.6284 69.9999H47.0844L64.0364 17.3759H64.2444L63.7244 38.4879V69.9999H79.5324V1.35994Z" fill="#110B0D"/>
<path d="M110.756 71.0399C119.18 71.0399 125.316 67.5039 128.54 60.2239L129.06 69.9999H144.868V17.9999H127.188V45.8719C127.188 53.9839 123.132 57.5199 118.14 57.5199C113.252 57.5199 110.548 55.2319 110.548 48.5759V17.9999H92.868V52.7359C92.868 65.84 100.148 71.0399 110.756 71.0399Z" fill="#110B0D"/>
<path d="M185.651 0.319946C167.035 0.319946 156.011 9.78394 156.011 22.6799C156.011 34.1199 164.435 39.3199 176.083 41.8159L188.771 44.6239C194.595 45.9759 196.363 48.056 196.259 50.9679C196.259 55.0239 192.515 57.2079 185.443 57.2079C176.083 57.2079 166.723 52.8399 161.523 46.8079L152.891 58.7679C159.755 66.1519 171.819 71.0399 185.651 71.0399C202.499 71.0399 214.667 63.2399 214.667 48.5759C214.667 38.4879 208.531 32.5599 194.803 29.4399L183.259 26.8399C177.227 25.4879 174.627 23.6159 174.627 20.5999C174.627 16.9599 177.643 14.1519 185.339 14.1519C193.971 14.1519 200.627 17.2719 206.659 23.5119L215.291 11.9679C208.115 4.27194 198.339 0.319946 185.651 0.319946Z" fill="#110B0D"/>
<path d="M249.354 16.9599C233.13 16.9599 221.898 26.9439 221.898 43.9999C221.898 61.0559 233.13 71.0399 249.354 71.0399C265.682 71.0399 276.914 61.0559 276.914 43.9999C276.914 26.9439 265.682 16.9599 249.354 16.9599ZM249.354 29.5439C255.49 29.5439 259.13 33.8079 259.13 43.9999C259.13 54.1919 255.49 58.4559 249.354 58.4559C243.218 58.4559 239.682 54.1919 239.682 43.9999C239.682 33.8079 243.218 29.5439 249.354 29.5439Z" fill="#110B0D"/>
</svg>
